{
 "fragments": [
  {
   "begin": "0.000", 
   "children": [], 
   "end": "0.960", 
   "id": "f000001", 
   "language": "pt", 
   "lines": [
    ""
   ]
  }, 
  {
   "begin": "0.960", 
   "children": [], 
   "end": "0.960", 
   "id": "f000002", 
   "language": "pt", 
   "lines": [
    ""
   ]
  }, 
  {
   "begin": "0.960", 
   "children": [], 
   "end": "1.960", 
   "id": "f000003", 
   "language": "pt", 
   "lines": [
    "Canto Sexto"
   ]
  }, 
  {
   "begin": "1.960", 
   "children": [], 
   "end": "1.960", 
   "id": "f000004", 
   "language": "pt", 
   "lines": [
    ""
   ]
  }, 
  {
   "begin": "1.960", 
   "children": [], 
   "end": "4.360", 
   "id": "f000005", 
   "language": "pt", 
   "lines": [
    ""
   ]
  }, 
  {
   "begin": "4.360", 
   "children": [], 
   "end": "23.200", 
   "id": "f000006", 
   "language": "pt", 
   "lines": [
    "N\u00e3o sabia em que modo festejasse O Rei Pag\u00e3o os fortes navegantes, Para que as amizades alcan\u00e7asse Do Rei Crist\u00e3o, das gentes t\u00e3o possantes Pesalhe que t\u00e3o longe o aposentasse Das Europ\u00e9ias terras abundantes A ventura, que n\u00e3o no fez vizinho Donde H\u00e9rcules ao mar abriu caminho."
   ]
  }, 
  {
   "begin": "23.200", 
   "children": [], 
   "end": "23.200", 
   "id": "f000007", 
   "language": "pt", 
   "lines": [
    ""
   ]
  }, 
  {
   "begin": "23.200", 
   "children": [], 
   "end": "23.800", 
   "id": "f000008", 
   "language": "pt", 
   "lines": [
    ""
   ]
  }, 
  {
   "begin": "23.800", 
   "children": [], 
   "end": "43.920", 
   "id": "f000009", 
   "language": "pt", 
   "lines": [
    "Com jogos, dan\u00e7as e outras alegrias, A segundo a pol\u00edcia Melindana, Com usadas e ledas pescarias, Com que a Lageia Ant\u00f3nio alegra e engana Este famoso Rei, todos os dias, Festeja a companhia Lusitana, Com banquetes, manjares desusados, Com frutas, aves, carnes e pescados."
   ]
  }, 
  {
   "begin": "43.920", 
   "children": [], 
   "end": "43.920", 
   "id": "f000010", 
   "language": "pt", 
   "lines": [
    ""
   ]
  }, 
  {
   "begin": "43.920", 
   "children": [], 
   "end": "44.560", 
   "id": "f000011", 
   "language": "pt", 
   "lines": [
    ""
   ]
  }, 
  {
   "begin": "44.560", 
   "children": [], 
   "end": "63.400", 
   "id": "f000012", 
   "language": "pt", 
   "lines": [
    "Mas vendo o Capit\u00e3o que se detinha J\u00e1 mais do que devia, e o fresco vento O convida que parta e tome asinha Os pilotos da terra e mantimento, N\u00e3o se quer mais deter, que ainda tinha Muito para cortar do salso argento J\u00e1 do Pag\u00e3o benigno se despede, Que a todos amizade longa pede."
   ]
  }, 
  {
   "begin": "63.400", 
   "children": [], 
   "end": "63.400", 
   "id": "f000013", 
   "language": "pt", 
   "lines": [
    ""
   ]
  }, 
  {
   "begin": "63.400", 
   "children": [], 
   "end": "63.400", 
   "id": "f000014", 
   "language": "pt", 
   "lines": [
    ""
   ]
  }, 
  {
   "begin": "63.400", 
   "children": [], 
   "end": "83.480", 
   "id": "f000015", 
   "language": "pt", 
   "lines": [
    "Pedelhe mais que aquele porto seja Sempre com suas frotas visitado, Que nenhum outro bem maior deseja, Que dar a tais bar\u00f5es seu reino e estado E que enquanto seu corpo o esp\u00edrito reja, Estar\u00e1 de contino aparelhado A p\u00f4r a vida e reino totalmente Por t\u00e3o bom Rei, por t\u00e3o sublime gente."
   ]
  }, 
  {
   "begin": "83.480", 
   "children": [], 
   "end": "83.480", 
   "id": "f000016", 
   "language": "pt", 
   "lines": [
    ""
   ]
  }, 
  {
   "begin": "83.480", 
   "children": [], 
   "end": "84.560", 
   "id": "f000017", 
   "language": "pt", 
   "lines": [
    ""
   ]
  }, 
  {
   "begin": "84.560", 
   "children": [], 
   "end": "94.840", 
   "id": "f000018", 
   "language": "pt", 
   "lines": [
    "Outras palavras tais lhe respondia O Capit\u00e3o, o logo as velas dando, Para as terras da Aurora se partia, Que tanto tempo h\u00e1 j\u00e1 que vai buscando."
   ]
  }, 
  {
   "begin": "94.840", 
   "children": [], 
   "end": "104.320", 
   "id": "f000019", 
   "language": "pt", 
   "lines": [
    "No piloto que leva n\u00e3o havia Falsidade, mas antes vai mostrando A navega\u00e7\u00e3o certa, e assim caminha J\u00e1 mais seguro do que dantes vinha."
   ]
  }, 
  {
   "begin": "104.320", 
   "children": [], 
   "end": "104.320", 
   "id": "f000020", 
   "language": "pt", 
   "lines": [
    ""
   ]
  }, 
  {
   "begin": "104.320", 
   "children": [], 
   "end": "104.320", 
   "id": "f000021", 
   "language": "pt", 
   "lines": [
    ""
   ]
  }, 
  {
   "begin": "104.320", 
   "children": [], 
   "end": "113.960", 
   "id": "f000022", 
   "language": "pt", 
   "lines": [
    "As ondas navegavam do Oriente J\u00e1 nos mares da \u00cdndia, e enxergavam Os t\u00e1lamos do Sol, que nasce ardente J\u00e1 quase seus desejos se acabavam."
   ]
  }, 
  {
   "begin": "113.960", 
   "children": [], 
   "end": "123.640", 
   "id": "f000023", 
   "language": "pt", 
   "lines": [
    "Mas o mau de Tioneu, que na alma sente As venturas, que ent\u00e3o se aparelhavam A gente Lusitana, delas dina, Arde, morre, blasfema e desatina."
   ]
  }, 
  {
   "begin": "123.640", 
   "children": [], 
   "end": "125.040", 
   "id": "f000024", 
   "language": "pt", 
   "lines": [
    ""
   ]
  }, 
  {
   "begin": "125.040", 
   "children": [], 
   "end": "125.040", 
   "id": "f000025", 
   "language": "pt", 
   "lines": [
    ""
   ]
  }, 
  {
   "begin": "125.040", 
   "children": [], 
   "end": "134.960", 
   "id": "f000026", 
   "language": "pt", 
   "lines": [
    "Via estar todo o C\u00e9u determinado De fazer de Lisboa nova Roma N\u00e3o no pode estorvar, que destinado Est\u00e1 doutro poder que tudo doma."
   ]
  }, 
  {
   "begin": "134.960", 
   "children": [], 
   "end": "145.360", 
   "id": "f000027", 
   "language": "pt", 
   "lines": [
    "Do Olimpo desce enfim desesperado Novo rem\u00e9dio em terra busca e toma: Entra no \u00famido reino, e vaise \u00e0 corte Daquele a quem o mar caiu em sorte."
   ]
  }, 
  {
   "begin": "145.360", 
   "children": [], 
   "end": "146.480", 
   "id": "f000028", 
   "language": "pt", 
   "lines": [
    ""
   ]
  }, 
  {
   "begin": "146.480", 
   "children": [], 
   "end": "146.480", 
   "id": "f000029", 
   "language": "pt", 
   "lines": [
    ""
   ]
  }, 
  {
   "begin": "146.480", 
   "children": [], 
   "end": "165.920", 
   "id": "f000030", 
   "language": "pt", 
   "lines": [
    "No mais interno fundo das profundas Cavernas altas, onde o mar se esconde, L\u00e1 donde as ondas saem furibundas, Quando \u00e0s iras do vento o mar responde, Netuno mora, e moram as jocundas Nereidas, e outros Deuses do mar, onde As \u00e1guas campo deixam \u00e0s cidades, Que habitam estas \u00famidas deidades."
   ]
  }, 
  {
   "begin": "165.920", 
   "children": [], 
   "end": "165.920", 
   "id": "f000031", 
   "language": "pt", 
   "lines": [
    ""
   ]
  }, 
  {
   "begin": "165.920", 
   "children": [], 
   "end": "166.760", 
   "id": "f000032", 
   "language": "pt", 
   "lines": [
    ""
   ]
  }, 
  {
   "begin": "166.760", 
   "children": [], 
   "end": "186.760", 
   "id": "f000033", 
   "language": "pt", 
   "lines": [
    "Descobre o fundo nunca descoberto Das areias ali de prata fina Torres altas se v\u00eaem no campo aberto Da transparente massa cristalina: Quanto se chegam mais os olhos perto, Tanto menos a vista determina Se \u00e9 cristal o que v\u00ea, se diamante, Que assim se mostra claro e radiante."
   ]
  }, 
  {
   "begin": "186.760", 
   "children": [], 
   "end": "186.760", 
   "id": "f000034", 
   "language": "pt", 
   "lines": [
    ""
   ]
  }, 
  {
   "begin": "186.760", 
   "children": [], 
   "end": "187.840", 
   "id": "f000035", 
   "language": "pt", 
   "lines": [
    ""
   ]
  }, 
  {
   "begin": "187.840", 
   "children": [], 
   "end": "210.440", 
   "id": "f000036", 
   "language": "pt", 
   "lines": [
    "As portas douro fino, e marchetadas Do rico alj\u00f4far que nas conchas nasce, De escultura formosa est\u00e3o lavradas, Na qual o irado Baco a vista pasce E v\u00ea primeiro em cores variadas Do velho Caos a t\u00e3o confusa face V\u00eaemse os quatro elementos trasladados Em diversos of\u00edcios ocupados."
   ]
  }, 
  {
   "begin": "210.440", 
   "children": [], 
   "end": "210.440", 
   "id": "f000037", 
   "language": "pt", 
   "lines": [
    ""
   ]
  }, 
  {
   "begin": "210.440", 
   "children": [], 
   "end": "210.440", 
   "id": "f000038", 
   "language": "pt", 
   "lines": [
    ""
   ]
  }, 
  {
   "begin": "210.440", 
   "children": [], 
   "end": "221.080", 
   "id": "f000039", 
   "language": "pt", 
   "lines": [
    "Ali sublime o Fogo estava em cima, Que em nenhuma mat\u00e9ria se sustinha Daqui as coisas vivas sempre anima, Depois que Prometeu furtado o tinha."
   ]
  }, 
  {
   "begin": "221.080", 
   "children": [], 
   "end": "231.040", 
   "id": "f000040", 
   "language": "pt", 
   "lines": [
    "Logo ap\u00f3s ele leve se sublima O invis\u00edvel Ar, que mais asinha Tomou lugar, e nem por quente ou f rio, Algum deixa no mundo estar vazio."
   ]
  }, 
  {
   "begin": "231.040", 
   "children": [], 
   "end": "231.040", 
   "id": "f000041", 
   "language": "pt", 
   "lines": [
    ""
   ]
  }, 
  {
   "begin": "231.040", 
   "children": [], 
   "end": "231.040", 
   "id": "f000042", 
   "language": "pt", 
   "lines": [
    ""
   ]
  }, 
  {
   "begin": "231.040", 
   "children": [], 
   "end": "241.000", 
   "id": "f000043", 
   "language": "pt", 
   "lines": [
    "Estava a terra em montes revestida De verdes ervas, e \u00e1rvores floridas, Dando pasto diverso e dando vida As alim\u00e1rias nela produzidas."
   ]
  }, 
  {
   "begin": "241.000", 
   "children": [], 
   "end": "251.240", 
   "id": "f000044", 
   "language": "pt", 
   "lines": [
    "A clara forma ali estava esculpida Das \u00e1guas entre a terra desparzidas, De pescados criando v\u00e1rios modos, Com seu humor mantendo os corpos todos."
   ]
  }, 
  {
   "begin": "251.240", 
   "children": [], 
   "end": "251.240", 
   "id": "f000045", 
   "language": "pt", 
   "lines": [
    ""
   ]
  }, 
  {
   "begin": "251.240", 
   "children": [], 
   "end": "252.040", 
   "id": "f000046", 
   "language": "pt", 
   "lines": [
    ""
   ]
  }, 
  {
   "begin": "252.040", 
   "children": [], 
   "end": "271.760", 
   "id": "f000047", 
   "language": "pt", 
   "lines": [
    "Noutra parte esculpida estava a guerra, Que tiveram os Deuses com os Gigantes Est\u00e1 Tifeu debaixo da alta serra De Etna, que as flamas lan\u00e7a crepitantes Esculpido se v\u00ea ferindo a terra Netuno, quando as gentes ignorantes Dele o cavalo houveram, e a primeira De Minerva pac\u00edfica oliveira."
   ]
  }, 
  {
   "begin": "271.760", 
   "children": [], 
   "end": "271.760", 
   "id": "f000048", 
   "language": "pt", 
   "lines": [
    ""
   ]
  }, 
  {
   "begin": "271.760", 
   "children": [], 
   "end": "271.760", 
   "id": "f000049", 
   "language": "pt", 
   "lines": [
    ""
   ]
  }, 
  {
   "begin": "271.760", 
   "children": [], 
   "end": "292.680", 
   "id": "f000050", 
   "language": "pt", 
   "lines": [
    "Pouca tardan\u00e7a faz Lieu irado Na vista destas coisas, mas entrando Nos pa\u00e7os de Netuno, que avisado Da vinda sua, o estava j\u00e1 aguardando, As portas o recebe, acompanhado Das Ninfas, que se est\u00e3o maravilhando De ver que, cometendo tal caminho, Entre no reino d\u00e1gua o Rei do vinho."
   ]
  }, 
  {
   "begin": "292.680", 
   "children": [], 
   "end": "292.680", 
   "id": "f000051", 
   "language": "pt", 
   "lines": [
    ""
   ]
  }, 
  {
   "begin": "292.680", 
   "children": [], 
   "end": "293.320", 
   "id": "f000052", 
   "language": "pt", 
   "lines": [
    ""
   ]
  }, 
  {
   "begin": "293.320", 
   "children": [], 
   "end": "303.480", 
   "id": "f000053", 
   "language": "pt", 
   "lines": [
    "\u00d3 Netuno, lhe disse, n\u00e3o te espantes De Baco nos teus reinos receberes, Porque tamb\u00e9m com os grandes e possantes Mostra a Fortuna injusta seus poderes."
   ]
  }, 
  {
   "begin": "303.480", 
   "children": [], 
   "end": "313.880", 
   "id": "f000054", 
   "language": "pt", 
   "lines": [
    "Manda chamar os Deuses do mar, antes Que fale mais, se ouvirme o mais quiseres Ver\u00e3o da desventura grandes modos: Ou\u00e7am todos o mal, que toca a todos."
   ]
  }, 
  {
   "begin": "313.880", 
   "children": [], 
   "end": "313.880", 
   "id": "f000055", 
   "language": "pt", 
   "lines": [
    ""
   ]
  }, 
  {
   "begin": "313.880", 
   "children": [], 
   "end": "313.880", 
   "id": "f000056", 
   "language": "pt", 
   "lines": [
    ""
   ]
  }, 
  {
   "begin": "313.880", 
   "children": [], 
   "end": "323.960", 
   "id": "f000057", 
   "language": "pt", 
   "lines": [
    "Julgando j\u00e1 Netuno que seria Estranho caso aquele, logo manda Trit\u00e3o, que chame os Deuses da \u00e1gua fria, Que o mar habitam duma e doutra banda."
   ]
  }, 
  {
   "begin": "323.960", 
   "children": [], 
   "end": "333.680", 
   "id": "f000058", 
   "language": "pt", 
   "lines": [
    "Trit\u00e3o, que de ser filho se gloria Do Rei e de Sal\u00e1cia veneranda, Era mancebo grande, negro e feio, Trombeta de seu pai, e seu correio."
   ]
  }, 
  {
   "begin": "333.680", 
   "children": [], 
   "end": "333.680", 
   "id": "f000059", 
   "language": "pt", 
   "lines": [
    ""
   ]
  }, 
  {
   "begin": "333.680", 
   "children": [], 
   "end": "334.360", 
   "id": "f000060", 
   "language": "pt", 
   "lines": [
    ""
   ]
  }, 
  {
   "begin": "334.360", 
   "children": [], 
   "end": "353.120", 
   "id": "f000061", 
   "language": "pt", 
   "lines": [
    "Os cabelos da barba, e os que descem Da cabe\u00e7a nos ombros, todos eram Uns limos prenhes d\u00e1gua, e bem parecem Que nunca brando pentem conheceram Nas pontas pendurados n\u00e3o falecem Os negros misilh\u00f5es, que ali se geram, Na cabe\u00e7a por gorra tinha posta Uma muito grande casca de lagosta."
   ]
  }, 
  {
   "begin": "353.120", 
   "children": [], 
   "end": "353.120", 
   "id": "f000062", 
   "language": "pt", 
   "lines": [
    ""
   ]
  }, 
  {
   "begin": "353.120", 
   "children": [], 
   "end": "353.880", 
   "id": "f000063", 
   "language": "pt", 
   "lines": [
    ""
   ]
  }, 
  {
   "begin": "353.880", 
   "children": [], 
   "end": "374.640", 
   "id": "f000064", 
   "language": "pt", 
   "lines": [
    "O corpo nu, e os membros genitais, Por n\u00e3o ter ao nadar impedimento, Mas por\u00e9m de pequenos animais Do mar todos cobertos cento e cento: Camar\u00f5es e cangrejos, e outros mais Que recebem de Febe crescimento, Ostras, e camar\u00f5es do musgo sujos, As costas com a casca os caramujos."
   ]
  }, 
  {
   "begin": "374.640", 
   "children": [], 
   "end": "374.640", 
   "id": "f000065", 
   "language": "pt", 
   "lines": [
    ""
   ]
  }, 
  {
   "begin": "374.640", 
   "children": [], 
   "end": "374.640", 
   "id": "f000066", 
   "language": "pt", 
   "lines": [
    ""
   ]
  }, 
  {
   "begin": "374.640", 
   "children": [], 
   "end": "383.840", 
   "id": "f000067", 
   "language": "pt", 
   "lines": [
    "Na m\u00e3o a grande concha retorcida Que trazia, com for\u00e7a, j\u00e1 tocava A voz grande canora foi ouvida Por todo o mar, que longe retumbava."
   ]
  }, 
  {
   "begin": "383.840", 
   "children": [], 
   "end": "393.920", 
   "id": "f000068", 
   "language": "pt", 
   "lines": [
    "J\u00e1 toda a companhia apercebida Dos Deuses para os pa\u00e7os caminhava Do Deus, que fez os muros de Dard\u00e2nia, Destru\u00eddos depois da Grega ins\u00e2nia."
   ]
  }, 
  {
   "begin": "393.920", 
   "children": [], 
   "end": "393.920", 
   "id": "f000069", 
   "language": "pt", 
   "lines": [
    ""
   ]
  }, 
  {
   "begin": "393.920", 
   "children": [], 
   "end": "393.920", 
   "id": "f000070", 
   "language": "pt", 
   "lines": [
    ""
   ]
  }, 
  {
   "begin": "393.920", 
   "children": [], 
   "end": "413.280", 
   "id": "f000071", 
   "language": "pt", 
   "lines": [
    "Vinha o padre Oceano acompanhado Dos filhos e das filhas que gerara Vem Nereu, que com D\u00f3ris foi casado, Que todo o mar de Ninfas povoara O profeta Proteu, deixando o gado Mar\u00edtimo pascer pela \u00e1gua amara, Ali veio tamb\u00e9m, mas j\u00e1 sabia O que o padre Lieu no mar queria."
   ]
  }, 
  {
   "begin": "413.280", 
   "children": [], 
   "end": "413.280", 
   "id": "f000072", 
   "language": "pt", 
   "lines": [
    ""
   ]
  }, 
  {
   "begin": "413.280", 
   "children": [], 
   "end": "413.280", 
   "id": "f000073", 
   "language": "pt", 
   "lines": [
    ""
   ]
  }, 
  {
   "begin": "413.280", 
   "children": [], 
   "end": "424.560", 
   "id": "f000074", 
   "language": "pt", 
   "lines": [
    "Vinha por outra parte a linda esposa De Netuno, de Celo e Vesta filha, Grave e Ieda no gesto, e t\u00e3o formosa Que se amansava o mar de maravilha."
   ]
  }, 
  {
   "begin": "424.560", 
   "children": [], 
   "end": "434.760", 
   "id": "f000075", 
   "language": "pt", 
   "lines": [
    "Vestida uma camisa preciosa Trazia de delgada beatilha, Que o corpo cristalino deixa verse, Que tanto bem n\u00e3o \u00e9 para esconderse."
   ]
  }, 
  {
   "begin": "434.760", 
   "children": [], 
   "end": "434.760", 
   "id": "f000076", 
   "language": "pt", 
   "lines": [
    ""
   ]
  }, 
  {
   "begin": "434.760", 
   "children": [], 
   "end": "434.760", 
   "id": "f000077", 
   "language": "pt", 
   "lines": [
    ""
   ]
  }, 
  {
   "begin": "434.760", 
   "children": [], 
   "end": "444.880", 
   "id": "f000078", 
   "language": "pt", 
   "lines": [
    "Anfitrite, formosa como as flores, Neste caso n\u00e3o quis que falecesse O Delfim traz consigo, que aos amores Do Rei lhe aconselhou que obedecesse."
   ]
  }, 
  {
   "begin": "444.880", 
   "children": [], 
   "end": "455.600", 
   "id": "f000079", 
   "language": "pt", 
   "lines": [
    "Com os olhos, que de tudo s\u00e3o senhores, Qualquer parecer\u00e1 que o Sol vencesse: Ambas v\u00eam pela m\u00e3o, igual partido, Pois ambas s\u00e3o esposas dum marido."
   ]
  }, 
  {
   "begin": "455.600", 
   "children": [], 
   "end": "455.600", 
   "id": "f000080", 
   "language": "pt", 
   "lines": [
    ""
   ]
  }, 
  {
   "begin": "455.600", 
   "children": [], 
   "end": "455.600", 
   "id": "f000081", 
   "language": "pt", 
   "lines": [
    ""
   ]
  }, 
  {
   "begin": "455.600", 
   "children": [], 
   "end": "465.600", 
   "id": "f000082", 
   "language": "pt", 
   "lines": [
    "Aquela que das f\u00farias de Atamante Fugindo, veio a ter divino estado, Consigo traz o filho, belo Infante, No n\u00famero dos Deuses relatado."
   ]
  }, 
  {
   "begin": "465.600", 
   "children": [], 
   "end": "475.840", 
   "id": "f000083", 
   "language": "pt", 
   "lines": [
    "Pela praia brincando vem diante Com as lindas conchinhas, que o salgado Mar sempre cria, e \u00e0s vezes pela areia No colo o to a a bela Panopeia."
   ]
  }, 
  {
   "begin": "475.840", 
   "children": [], 
   "end": "475.840", 
   "id": "f000084", 
   "language": "pt", 
   "lines": [
    ""
   ]
  }, 
  {
   "begin": "475.840", 
   "children": [], 
   "end": "475.840", 
   "id": "f000085", 
   "language": "pt", 
   "lines": [
    ""
   ]
  }, 
  {
   "begin": "475.840", 
   "children": [], 
   "end": "496.280", 
   "id": "f000086", 
   "language": "pt", 
   "lines": [
    "E o Deus que foi num tempo corpo humano, E por virtude da erva poderosa Foi convertido em peixe, e deste dano Lhe resultou deidade gloriosa, Inda vinha chorando o feio engano Que Circe tinha usado com a formosa Cila, que ele ama, desta sendo amado, Que a mais obriga amor mal empregado."
   ]
  }, 
  {
   "begin": "496.280", 
   "children": [], 
   "end": "496.280", 
   "id": "f000087", 
   "language": "pt", 
   "lines": [
    ""
   ]
  }, 
  {
   "begin": "496.280", 
   "children": [], 
   "end": "496.280", 
   "id": "f000088", 
   "language": "pt", 
   "lines": [
    ""
   ]
  }, 
  {
   "begin": "496.280", 
   "children": [], 
   "end": "511.720", 
   "id": "f000089", 
   "language": "pt", 
   "lines": [
    "J\u00e1 finalmente todos assentados Na grande sala, nobre e divinal As Deusas em riqu\u00edssimos estrados, Os Deuses em cadeiras de cristal, Foram todos do Padre agasalhados, Que com o Tebano tinha assento igual."
   ]
  }, 
  {
   "begin": "511.720", 
   "children": [], 
   "end": "517.400", 
   "id": "f000090", 
   "language": "pt", 
   "lines": [
    "De fumos enche a casa a rica massa Que no mar nasce, e Ar\u00e1bia em cheiro passa."
   ]
  }, 
  {
   "begin": "517.400", 
   "children": [], 
   "end": "517.400", 
   "id": "f000091", 
   "language": "pt", 
   "lines": [
    ""
   ]
  }, 
  {
   "begin": "517.400", 
   "children": [], 
   "end": "517.400", 
   "id": "f000092", 
   "language": "pt", 
   "lines": [
    ""
   ]
  }, 
  {
   "begin": "517.400", 
   "children": [], 
   "end": "538.720", 
   "id": "f000093", 
   "language": "pt", 
   "lines": [
    "Estando sossegado j\u00e1 o tumulto Dos Deuses, e de seus recebimentos, Come\u00e7a a descobrir do peito oculto A causa o Tioneu de seus tormentos: Um pouco carregandose no vulto, Dando mostra de grandes sentimentos, S\u00f3 por dar aos de Luso triste morte Com o ferro alheio, fala desta sorte:"
   ]
  }, 
  {
   "begin": "538.720", 
   "children": [], 
   "end": "538.720", 
   "id": "f000094", 
   "language": "pt", 
   "lines": [
    ""
   ]
  }, 
  {
   "begin": "538.720", 
   "children": [], 
   "end": "538.720", 
   "id": "f000095", 
   "language": "pt", 
   "lines": [
    ""
   ]
  }, 
  {
   "begin": "538.720", 
   "children": [], 
   "end": "559.000", 
   "id": "f000096", 
   "language": "pt", 
   "lines": [
    "Pr\u00edncipe, que de juro senhoreias Dum P\u00f3lo ao outro P\u00f3lo o mar irado, Tu, que as gentes da terra toda enfreias, Que n\u00e3o passem o termo limitado E tu, padre Oceano, que rodeias O inundo universal, e o tens cercado, E com justo decreto assim permites Que dentro vivam s\u00f3 de seus limites"
   ]
  }, 
  {
   "begin": "559.000", 
   "children": [], 
   "end": "559.000", 
   "id": "f000097", 
   "language": "pt", 
   "lines": [
    ""
   ]
  }, 
  {
   "begin": "559.000", 
   "children": [], 
   "end": "559.000", 
   "id": "f000098", 
   "language": "pt", 
   "lines": [
    ""
   ]
  }, 
  {
   "begin": "559.000", 
   "children": [], 
   "end": "572.320", 
   "id": "f000099", 
   "language": "pt", 
   "lines": [
    "E v\u00f3s, Deuses do mar, que n\u00e3o sofreis Inj\u00faria alguma em vosso reino grande, Que com castigo igual vos n\u00e3o vingueis De quem quer que por ele corra e ande: Que descuido foi este em que viveis?"
   ]
  }, 
  {
   "begin": "572.320", 
   "children": [], 
   "end": "579.160", 
   "id": "f000100", 
   "language": "pt", 
   "lines": [
    "Quem pode ser que tanto vos abrande Os peitos, com raz\u00e3o endurecidos Contra os humanos fracos e atrevidos?"
   ]
  }, 
  {
   "begin": "579.160", 
   "children": [], 
   "end": "579.160", 
   "id": "f000101", 
   "language": "pt", 
   "lines": [
    ""
   ]
  }, 
  {
   "begin": "579.160", 
   "children": [], 
   "end": "579.160", 
   "id": "f000102", 
   "language": "pt", 
   "lines": [
    ""
   ]
  }, 
  {
   "begin": "579.160", 
   "children": [], 
   "end": "599.200", 
   "id": "f000103", 
   "language": "pt", 
   "lines": [
    "Vistes que com grand\u00edssima ousadia Foram j\u00e1 cometer o C\u00e9u supremo Vistes aquela insana fantasia De tentarem o mar com vela e reino Vistes, e ainda vemos cada dia, Soberbas e insol\u00eancias tais, que temo Que do mar e do C\u00e9u em poucos anos Venham Deuses a ser, e n\u00f3s humanos."
   ]
  }, 
  {
   "begin": "599.200", 
   "children": [], 
   "end": "599.200", 
   "id": "f000104", 
   "language": "pt", 
   "lines": [
    ""
   ]
  }, 
  {
   "begin": "599.200", 
   "children": [], 
   "end": "599.200", 
   "id": "f000105", 
   "language": "pt", 
   "lines": [
    ""
   ]
  }, 
  {
   "begin": "599.200", 
   "children": [], 
   "end": "619.360", 
   "id": "f000106", 
   "language": "pt", 
   "lines": [
    "Vedes agora a fraca gera\u00e7\u00e3o Que dum vassalo meu o nome toma, Com soberbo e altivo cora\u00e7\u00e3o, A v\u00f3s, e a mi, e o mundo todo doma Vedes, o vosso mar cortando v\u00e3o, Mais do que fez a gente alta de Roma Vedes, o vosso reino devassando, Os vossos estatutos v\u00e3o quebrando."
   ]
  }, 
  {
   "begin": "619.360", 
   "children": [], 
   "end": "619.360", 
   "id": "f000107", 
   "language": "pt", 
   "lines": [
    ""
   ]
  }, 
  {
   "begin": "619.360", 
   "children": [], 
   "end": "619.360", 
   "id": "f000108", 
   "language": "pt", 
   "lines": [
    ""
   ]
  }, 
  {
   "begin": "619.360", 
   "children": [], 
   "end": "629.760", 
   "id": "f000109", 
   "language": "pt", 
   "lines": [
    "Eu vi que contra os M\u00ednias, que primeiro No vosso reino este caminho abriram, B\u00f3reas injuriado, e o companheiro Aquilo, e os outros todos resistiram."
   ]
  }, 
  {
   "begin": "629.760", 
   "children": [], 
   "end": "638.840", 
   "id": "f000110", 
   "language": "pt", 
   "lines": [
    "Pois se do ajuntamento aventureiro Os ventos esta inj\u00faria assim sentiram, V\u00f3s, a quem mais compete esta vingan\u00e7a, Que esperais?"
   ]
  }, 
  {
   "begin": "638.840", 
   "children": [], 
   "end": "640.520", 
   "id": "f000111", 
   "language": "pt", 
   "lines": [
    "Porque a pondes em tardan\u00e7a?"
   ]
  }, 
  {
   "begin": "640.520", 
   "children": [], 
   "end": "640.520", 
   "id": "f000112", 
   "language": "pt", 
   "lines": [
    ""
   ]
  }, 
  {
   "begin": "640.520", 
   "children": [], 
   "end": "640.520", 
   "id": "f000113", 
   "language": "pt", 
   "lines": [
    ""
   ]
  }, 
  {
   "begin": "640.520", 
   "children": [], 
   "end": "659.360", 
   "id": "f000114", 
   "language": "pt", 
   "lines": [
    "E n\u00e3o consinto, Deuses, que cuideis Que por amor de v\u00f3s do c\u00e9u desci, Nem da m\u00e1goa da inj\u00faria que sofreis, Mas da que se me faz tamb\u00e9m a mi Que aquelas grandes honras, que sabeis Que no mundo ganhei, quando venci As terras Indianas do Oriente, Todas vejo abatidas desta gente."
   ]
  }, 
  {
   "begin": "659.360", 
   "children": [], 
   "end": "659.360", 
   "id": "f000115", 
   "language": "pt", 
   "lines": [
    ""
   ]
  }, 
  {
   "begin": "659.360", 
   "children": [], 
   "end": "659.360", 
   "id": "f000116", 
   "language": "pt", 
   "lines": [
    ""
   ]
  }, 
  {
   "begin": "659.360", 
   "children": [], 
   "end": "669.480", 
   "id": "f000117", 
   "language": "pt", 
   "lines": [
    "Que o gr\u00e3 Senhor e Fados que destinam, Como lhe bem parece, o baixo mundo, Famas mores que nunca determinam De dar a estes bar\u00f5es no mar profundo."
   ]
  }, 
  {
   "begin": "669.480", 
   "children": [], 
   "end": "679.640", 
   "id": "f000118", 
   "language": "pt", 
   "lines": [
    "Aqui vereis, \u00f3 Deuses, como ensinam O mal tamb\u00e9m a Deuses: que, a segundo Se v\u00ea, ningu\u00e9m j\u00e1 tem menos valia, Que quem com mais raz\u00e3o valer devia."
   ]
  }, 
  {
   "begin": "679.640", 
   "children": [], 
   "end": "679.640", 
   "id": "f000119", 
   "language": "pt", 
   "lines": [
    ""
   ]
  }, 
  {
   "begin": "679.640", 
   "children": [], 
   "end": "679.640", 
   "id": "f000120", 
   "language": "pt", 
   "lines": [
    ""
   ]
  }, 
  {
   "begin": "679.640", 
   "children": [], 
   "end": "690.520", 
   "id": "f000121", 
   "language": "pt", 
   "lines": [
    "E por isso do Olimpo j\u00e1 fugi, Buscando algum rem\u00e9dio a meus pesares, Por ver o pre\u00e7o que no C\u00e9u perdi, Se por dita acharei nos vossos mares."
   ]
  }, 
  {
   "begin": "690.520", 
   "children": [], 
   "end": "701.400", 
   "id": "f000122", 
   "language": "pt", 
   "lines": [
    "Mais quis dizer, e n\u00e3o passou daqui, Porque as l\u00e1grimas j\u00e1 correndo a pares Lhe saltaram dos olhos, com que logo Se acendem as Deidades d\u00e1gua em fogo."
   ]
  }, 
  {
   "begin": "701.400", 
   "children": [], 
   "end": "701.400", 
   "id": "f000123", 
   "language": "pt", 
   "lines": [
    ""
   ]
  }, 
  {
   "begin": "701.400", 
   "children": [], 
   "end": "701.400", 
   "id": "f000124", 
   "language": "pt", 
   "lines": [
    ""
   ]
  }, 
  {
   "begin": "701.400", 
   "children": [], 
   "end": "711.800", 
   "id": "f000125", 
   "language": "pt", 
   "lines": [
    "A ira com que s\u00fabito alterado O cora\u00e7\u00e3o dos Deuses foi num ponto, N\u00e3o sofreu mais conselho bem cuidado, Nem dila\u00e7\u00e3o, nem outro algum desconto."
   ]
  }, 
  {
   "begin": "711.800", 
   "children": [], 
   "end": "722.720", 
   "id": "f000126", 
   "language": "pt", 
   "lines": [
    "Ao grande Eolo mandam j\u00e1 recado Da parte de Netuno, que sem conto Solte as f\u00farias dos ventos repugnantes, Que n\u00e3o haja no mar mais navegantes."
   ]
  }, 
  {
   "begin": "722.720", 
   "children": [], 
   "end": "722.720", 
   "id": "f000127", 
   "language": "pt", 
   "lines": [
    ""
   ]
  }, 
  {
   "begin": "722.720", 
   "children": [], 
   "end": "722.720", 
   "id": "f000128", 
   "language": "pt", 
   "lines": [
    ""
   ]
  }, 
  {
   "begin": "722.720", 
   "children": [], 
   "end": "732.320", 
   "id": "f000129", 
   "language": "pt", 
   "lines": [
    "Bem quisera primeiro ali Proteu Dizer neste neg\u00f3cio o que sentia, E segundo o que a todos pareceu, Era alguma profunda profecia."
   ]
  }, 
  {
   "begin": "732.320", 
   "children": [], 
   "end": "741.440", 
   "id": "f000130", 
   "language": "pt", 
   "lines": [
    "Por\u00e9m tanto o tumulto se moveu S\u00fabito na divina companhia, Que Tethys indignada lhe bradou: Netuno sabe bem o que mandou."
   ]
  }, 
  {
   "begin": "741.440", 
   "children": [], 
   "end": "741.440", 
   "id": "f000131", 
   "language": "pt", 
   "lines": [
    ""
   ]
  }, 
  {
   "begin": "741.440", 
   "children": [], 
   "end": "741.440", 
   "id": "f000132", 
   "language": "pt", 
   "lines": [
    ""
   ]
  }, 
  {
   "begin": "741.440", 
   "children": [], 
   "end": "753.160", 
   "id": "f000133", 
   "language": "pt", 
   "lines": [
    "J\u00e1 l\u00e1 o soberbo Hip\u00f3tades soltava Do c\u00e1rcere fechado os furiosos Ventos, que com palavras animava Contra os var\u00f5es audazes e animosos."
   ]
  }, 
  {
   "begin": "753.160", 
   "children": [], 
   "end": "764.360", 
   "id": "f000134", 
   "language": "pt", 
   "lines": [
    "S\u00fabito o c\u00e9u sereno se obumbrava, Que os ventos, mais que nunca impetuosos, Come\u00e7am novas for\u00e7as a ir tomando, Torres, montes e casas derribando."
   ]
  }, 
  {
   "begin": "764.360", 
   "children": [], 
   "end": "764.360", 
   "id": "f000135", 
   "language": "pt", 
   "lines": [
    ""
   ]
  }, 
  {
   "begin": "764.360", 
   "children": [], 
   "end": "764.360", 
   "id": "f000136", 
   "language": "pt", 
   "lines": [
    ""
   ]
  }, 
  {
   "begin": "764.360", 
   "children": [], 
   "end": "774.760", 
   "id": "f000137", 
   "language": "pt", 
   "lines": [
    "Enquanto este conselho se fazia No fundo aquoso, a leda lassa frota Com vento sossegado prosseguia, Pelo tranquilo mar, a longa rota."
   ]
  }, 
  {
   "begin": "774.760", 
   "children": [], 
   "end": "785.680", 
   "id": "f000138", 
   "language": "pt", 
   "lines": [
    "Era no tempo quando a luz do dia Do E\u00f4o Hemisf\u00e9rio est\u00e1 remota Os do quarto da prima se deitavam, Para o segundo os outros despertavam."
   ]
  }, 
  {
   "begin": "785.680", 
   "children": [], 
   "end": "785.680", 
   "id": "f000139", 
   "language": "pt", 
   "lines": [
    ""
   ]
  }, 
  {
   "begin": "785.680", 
   "children": [], 
   "end": "785.680", 
   "id": "f000140", 
   "language": "pt", 
   "lines": [
    ""
   ]
  }, 
  {
   "begin": "785.680", 
   "children": [], 
   "end": "808.960", 
   "id": "f000141", 
   "language": "pt", 
   "lines": [
    "Vencidos v\u00eam do sono, e mal despertos Bocejando a mi\u00fado se encostavam Pelas antenas, todos mal cobertos Contra os agudos ares, que assopravam Os olhos contra seu querer abertos, Alas estregando, os membros estiravam Rem\u00e9dios contra o sono buscar querem, Hist\u00f3rias contam, casos mil referem."
   ]
  }, 
  {
   "begin": "808.960", 
   "children": [], 
   "end": "808.960", 
   "id": "f000142", 
   "language": "pt", 
   "lines": [
    ""
   ]
  }, 
  {
   "begin": "808.960", 
   "children": [], 
   "end": "808.960", 
   "id": "f000143", 
   "language": "pt", 
   "lines": [
    ""
   ]
  }, 
  {
   "begin": "808.960", 
   "children": [], 
   "end": "819.840", 
   "id": "f000144", 
   "language": "pt", 
   "lines": [
    "Com que melhor podemos, um dizia, Este tempo passar, que \u00e9 t\u00e3o pesado, Sen\u00e3o com algum conto de alegria, Com que nos deixe o sono carregado?"
   ]
  }, 
  {
   "begin": "819.840", 
   "children": [], 
   "end": "829.240", 
   "id": "f000145", 
   "language": "pt", 
   "lines": [
    "Responde Leonardo, que trazia Pensamentos de firme namorado: Que contos poderemos ter melhores, Para passar o tempo, que de amores?"
   ]
  }, 
  {
   "begin": "829.240", 
   "children": [], 
   "end": "829.240", 
   "id": "f000146", 
   "language": "pt", 
   "lines": [
    ""
   ]
  }, 
  {
   "begin": "829.240", 
   "children": [], 
   "end": "829.240", 
   "id": "f000147", 
   "language": "pt", 
   "lines": [
    ""
   ]
  }, 
  {
   "begin": "829.240", 
   "children": [], 
   "end": "849.320", 
   "id": "f000148", 
   "language": "pt", 
   "lines": [
    "N\u00e3o \u00e9, disse Veloso, coisa justa Tratar branduras em tanta aspereza Que o trabalho do mar, que tanto custa, N\u00e3o sofre amores, nem delicadeza Antes de guerra f\u00e9rvida e robusta A nossa hist\u00f3ria seja, pois dureza Nossa vida h\u00e1 de ser, segundo entendo, Que o trabalho por vir me est\u00e1 dizendo."
   ]
  }, 
  {
   "begin": "849.320", 
   "children": [], 
   "end": "849.320", 
   "id": "f000149", 
   "language": "pt", 
   "lines": [
    ""
   ]
  }, 
  {
   "begin": "849.320", 
   "children": [], 
   "end": "849.320", 
   "id": "f000150", 
   "language": "pt", 
   "lines": [
    ""
   ]
  }, 
  {
   "begin": "849.320", 
   "children": [], 
   "end": "855.240", 
   "id": "f000151", 
   "language": "pt", 
   "lines": [
    "Consentem nisto todos, e encomendam A Veloso que conte isto que aprova."
   ]
  }, 
  {
   "begin": "855.240", 
   "children": [], 
   "end": "870.720", 
   "id": "f000152", 
   "language": "pt", 
   "lines": [
    "Contarei, disse, sem que me repreendam De contar cousa fabulosa ou nova E porque os que me ouvirem daqui aprendam A fazer feitos grandes de alta prova, Dos nascidos direi na nossa terra, E estes sejam os doze de Inglaterra."
   ]
  }, 
  {
   "begin": "870.720", 
   "children": [], 
   "end": "870.720", 
   "id": "f000153", 
   "language": "pt", 
   "lines": [
    ""
   ]
  }, 
  {
   "begin": "870.720", 
   "children": [], 
   "end": "870.720", 
   "id": "f000154", 
   "language": "pt", 
   "lines": [
    ""
   ]
  }, 
  {
   "begin": "870.720", 
   "children": [], 
   "end": "892.120", 
   "id": "f000155", 
   "language": "pt", 
   "lines": [
    "No tempo que do Reino a r\u00e9dea leve Jo\u00e3o, filho de Pedro, moderava, Depois que sossegado e livre o teve Do vizinho poder, que o molestava, L\u00e1 na grande Inglaterra, que da neve Boreal sempre abunda, semeava A fera Er\u00ednis dura e m\u00e1 ciz\u00e2nia, Que lustre fosse a nossa Lusit\u00e2nia."
   ]
  }, 
  {
   "begin": "892.120", 
   "children": [], 
   "end": "892.120", 
   "id": "f000156", 
   "language": "pt", 
   "lines": [
    ""
   ]
  }, 
  {
   "begin": "892.120", 
   "children": [], 
   "end": "892.120", 
   "id": "f000157", 
   "language": "pt", 
   "lines": [
    ""
   ]
  }, 
  {
   "begin": "892.120", 
   "children": [], 
   "end": "903.080", 
   "id": "f000158", 
   "language": "pt", 
   "lines": [
    "Entre as damas gentis da corte Inglesa E nobres cortes\u00e3os, acaso um dia Se levantou disc\u00f3rdia em ira acesa, Ou foi opini\u00e3o, ou foi porfia."
   ]
  }, 
  {
   "begin": "903.080", 
   "children": [], 
   "end": "913.720", 
   "id": "f000159", 
   "language": "pt", 
   "lines": [
    "Os cortes\u00e3os, a quem t\u00e3o pouco pesa Soltar palavras graves de ousadia, Dizem que provar\u00e3o, que honras e famas Em tais damas n\u00e3o h\u00e1 para ser damas"
   ]
  }, 
  {
   "begin": "913.720", 
   "children": [], 
   "end": "913.720", 
   "id": "f000160", 
   "language": "pt", 
   "lines": [
    ""
   ]
  }, 
  {
   "begin": "913.720", 
   "children": [], 
   "end": "913.720", 
   "id": "f000161", 
   "language": "pt", 
   "lines": [
    ""
   ]
  }, 
  {
   "begin": "913.720", 
   "children": [], 
   "end": "924.880", 
   "id": "f000162", 
   "language": "pt", 
   "lines": [
    "E que se houver algu\u00e9m, com lan\u00e7a e espada, Que queira sustentar a parte sua, Que eles, em campo raso ou estacada, Lhe dar\u00e3o feia inf\u00e2mia, ou morte crua."
   ]
  }, 
  {
   "begin": "924.880", 
   "children": [], 
   "end": "935.720", 
   "id": "f000163", 
   "language": "pt", 
   "lines": [
    "A feminil fraqueza Pouco usada, Ou nunca, a opr\u00f3brios tais, vendose nua De for\u00e7as naturais convenientes, Socorro pede a amigos e parentes."
   ]
  }, 
  {
   "begin": "935.720", 
   "children": [], 
   "end": "935.720", 
   "id": "f000164", 
   "language": "pt", 
   "lines": [
    ""
   ]
  }, 
  {
   "begin": "935.720", 
   "children": [], 
   "end": "935.720", 
   "id": "f000165", 
   "language": "pt", 
   "lines": [
    ""
   ]
  }, 
  {
   "begin": "935.720", 
   "children": [], 
   "end": "945.600", 
   "id": "f000166", 
   "language": "pt", 
   "lines": [
    "Mas como fossem grandes e possantes No reino os inimigos, n\u00e3o se atrevem Nem parentes, nem f\u00e9rvidos amantes, A sustentar as damas, como devem."
   ]
  }, 
  {
   "begin": "945.600", 
   "children": [], 
   "end": "956.160", 
   "id": "f000167", 
   "language": "pt", 
   "lines": [
    "Com l\u00e1grimas formosas e bastantes A fazer que em socorro os Deuses levem De todo o C\u00e9u, por rostos de alabastro, Se v\u00e3o todas ao duque de Alencastro."
   ]
  }, 
  {
   "begin": "956.160", 
   "children": [], 
   "end": "956.160", 
   "id": "f000168", 
   "language": "pt", 
   "lines": [
    ""
   ]
  }, 
  {
   "begin": "956.160", 
   "children": [], 
   "end": "956.160", 
   "id": "f000169", 
   "language": "pt", 
   "lines": [
    ""
   ]
  }, 
  {
   "begin": "956.160", 
   "children": [], 
   "end": "977.240", 
   "id": "f000170", 
   "language": "pt", 
   "lines": [
    "Era este Ingl\u00eas potente, e militara Com os Portugueses j\u00e1 contra Castela, Onde as for\u00e7as magn\u00e2nimas provara Dos companheiros, e benigna estrela: N\u00e3o menos nesta terra experimentara Namorados afeitos, quando nela A filha viu, que tinto o peito doma Do forte Rei, que por mulher a toma."
   ]
  }, 
  {
   "begin": "977.240", 
   "children": [], 
   "end": "977.240", 
   "id": "f000171", 
   "language": "pt", 
   "lines": [
    ""
   ]
  }, 
  {
   "begin": "977.240", 
   "children": [], 
   "end": "977.240", 
   "id": "f000172", 
   "language": "pt", 
   "lines": [
    ""
   ]
  }, 
  {
   "begin": "977.240", 
   "children": [], 
   "end": "999.120", 
   "id": "f000173", 
   "language": "pt", 
   "lines": [
    "Este, que socorrerlhe n\u00e3o queria, Por n\u00e3o causar disc\u00f3rdias intestinas, Lhe diz:Quando o direito pretendia Do reino l\u00e1 das terras Iberinas, Nos Lusitanos vi tanta ousadia, Tanto primor, e partes t\u00e3o divinas, Que eles s\u00f3s poderiam, se n\u00e3o erro, Sustentar vossa parte a fogo e ferro."
   ]
  }, 
  {
   "begin": "999.120", 
   "children": [], 
   "end": "999.120", 
   "id": "f000174", 
   "language": "pt", 
   "lines": [
    ""
   ]
  }, 
  {
   "begin": "999.120", 
   "children": [], 
   "end": "999.120", 
   "id": "f000175", 
   "language": "pt", 
   "lines": [
    ""
   ]
  }, 
  {
   "begin": "999.120", 
   "children": [], 
   "end": "1010.600", 
   "id": "f000176", 
   "language": "pt", 
   "lines": [
    "E se, agravadas damas, sois servidas, Por v\u00f3s lhe mandarei embaixadores, Que, por cartas discretas e polidas, De vosso agravo os fa\u00e7am sabedores."
   ]
  }, 
  {
   "begin": "1010.600", 
   "children": [], 
   "end": "1021.280", 
   "id": "f000177", 
   "language": "pt", 
   "lines": [
    "Tamb\u00e9m por vossa parto encarecidas Com palavras de afagos e de amores Lhe sejam vossas l\u00e1grimas, que eu creio Que ali tereis socorro e forte esteio."
   ]
  }, 
  {
   "begin": "1021.280", 
   "children": [], 
   "end": "1021.280", 
   "id": "f000178", 
   "language": "pt", 
   "lines": [
    ""
   ]
  }, 
  {
   "begin": "1021.280", 
   "children": [], 
   "end": "1021.280", 
   "id": "f000179", 
   "language": "pt", 
   "lines": [
    ""
   ]
  }, 
  {
   "begin": "1021.280", 
   "children": [], 
   "end": "1045.520", 
   "id": "f000180", 
   "language": "pt", 
   "lines": [
    "Destarte as aconselha o Duque experto, E logo lhe nomeia doze fortes E por que cada dama um tenha certo, Lhe manda que sobre eles lancem sortes, Que elas s\u00f3 doze s\u00e3o e descoberto Qual a qual tem ca\u00eddo das consertes, Cada uma escreve ao seu por v\u00e1rios modos, E todas a seu Rei, e o Duque a todos."
   ]
  }, 
  {
   "begin": "1045.520", 
   "children": [], 
   "end": "1045.520", 
   "id": "f000181", 
   "language": "pt", 
   "lines": [
    ""
   ]
  }, 
  {
   "begin": "1045.520", 
   "children": [], 
   "end": "1045.520", 
   "id": "f000182", 
   "language": "pt", 
   "lines": [
    ""
   ]
  }, 
  {
   "begin": "1045.520", 
   "children": [], 
   "end": "1057.200", 
   "id": "f000183", 
   "language": "pt", 
   "lines": [
    "J\u00e1 chega a Portugal o mensageiro Toda a corte alvoro\u00e7a a novidade Quisera o Rei sublime ser primeiro, Mas n\u00e3o lhe sofre a R\u00e9gia Majestade."
   ]
  }, 
  {
   "begin": "1057.200", 
   "children": [], 
   "end": "1067.000", 
   "id": "f000184", 
   "language": "pt", 
   "lines": [
    "Qualquer dos cortes\u00e3os aventureiro Deseja ser, com f\u00e9rvida vontade, F, s\u00f3 fica por bemaventurado Quem j\u00e1 vem pelo Duque nomeado."
   ]
  }, 
  {
   "begin": "1067.000", 
   "children": [], 
   "end": "1067.000", 
   "id": "f000185", 
   "language": "pt", 
   "lines": [
    ""
   ]
  }, 
  {
   "begin": "1067.000", 
   "children": [], 
   "end": "1067.000", 
   "id": "f000186", 
   "language": "pt", 
   "lines": [
    ""
   ]
  }, 
  {
   "begin": "1067.000", 
   "children": [], 
   "end": "1076.880", 
   "id": "f000187", 
   "language": "pt", 
   "lines": [
    "L\u00e1 na leal Cidade, donde teve Origem (como \u00e9 fama) o nome eterno De Portugal, armar madeiro leve Manda o que tem o leme do governo."
   ]
  }, 
  {
   "begin": "1076.880", 
   "children": [], 
   "end": "1088.840", 
   "id": "f000188", 
   "language": "pt", 
   "lines": [
    "Apercebemse os doze, em tempo breve, De armas, e roupas de uso mais moderno, De elmos, cimeiras, letras, e primores, Cavalos, e concertos de mil cores."
   ]
  }, 
  {
   "begin": "1088.840", 
   "children": [], 
   "end": "1088.840", 
   "id": "f000189", 
   "language": "pt", 
   "lines": [
    ""
   ]
  }, 
  {
   "begin": "1088.840", 
   "children": [], 
   "end": "1088.840", 
   "id": "f000190", 
   "language": "pt", 
   "lines": [
    ""
   ]
  }, 
  {
   "begin": "1088.840", 
   "children": [], 
   "end": "1099.280", 
   "id": "f000191", 
   "language": "pt", 
   "lines": [
    "J\u00e1 do seu Rei tomado t\u00eam licen\u00e7a Para partir do Douro celebrado Aqueles, que escolhidos por senten\u00e7a Foram do Duque Ingl\u00eas experimentado."
   ]
  }, 
  {
   "begin": "1099.280", 
   "children": [], 
   "end": "1109.840", 
   "id": "f000192", 
   "language": "pt", 
   "lines": [
    "N\u00e3o h\u00e1 na companhia diferen\u00e7a De cavaleiro destro ou esfor\u00e7ado Mas um s\u00f3, que Magri\u00e7o se dizia, Destarte fala \u00e0 forte companhia:"
   ]
  }, 
  {
   "begin": "1109.840", 
   "children": [], 
   "end": "1109.840", 
   "id": "f000193", 
   "language": "pt", 
   "lines": [
    ""
   ]
  }, 
  {
   "begin": "1109.840", 
   "children": [], 
   "end": "1109.840", 
   "id": "f000194", 
   "language": "pt", 
   "lines": [
    ""
   ]
  }, 
  {
   "begin": "1109.840", 
   "children": [], 
   "end": "1122.160", 
   "id": "f000195", 
   "language": "pt", 
   "lines": [
    "Fort\u00edssimos cons\u00f3cios, eu desejo H\u00e1 muito j\u00e1 de andar terras estranhas, Por ver mais \u00e1guas que as do Douro o Tejo, V\u00e1rias gentes, e leis, e v\u00e1rias manhas."
   ]
  }, 
  {
   "begin": "1122.160", 
   "children": [], 
   "end": "1132.880", 
   "id": "f000196", 
   "language": "pt", 
   "lines": [
    "Agora, que aparelho certo vejo, (Pois que do mundo as coisas s\u00e3o tamanhas) Quero, se me deixais, ir s\u00f3 por terra, Porque eu serei convosco em Inglaterra."
   ]
  }, 
  {
   "begin": "1132.880", 
   "children": [], 
   "end": "1132.880", 
   "id": "f000197", 
   "language": "pt", 
   "lines": [
    ""
   ]
  }, 
  {
   "begin": "1132.880", 
   "children": [], 
   "end": "1132.880", 
   "id": "f000198", 
   "language": "pt", 
   "lines": [
    ""
   ]
  }, 
  {
   "begin": "1132.880", 
   "children": [], 
   "end": "1155.480", 
   "id": "f000199", 
   "language": "pt", 
   "lines": [
    "E quando caso for que eu impedido Por quem das cousas \u00e9 \u00faltima linha, N\u00e3o for convosco ao prazo institu\u00eddo, Pouca falta vos faz a falta minha: Todos por mim fareis o que \u00e9 devido Mas, se a verdade o esp\u00edrito me adivinha, Rios, montes, fortuna, ou sua inveja, N\u00e3o far\u00e3o que eu convosco l\u00e1 n\u00e3o seja."
   ]
  }, 
  {
   "begin": "1155.480", 
   "children": [], 
   "end": "1155.480", 
   "id": "f000200", 
   "language": "pt", 
   "lines": [
    ""
   ]
  }, 
  {
   "begin": "1155.480", 
   "children": [], 
   "end": "1155.480", 
   "id": "f000201", 
   "language": "pt", 
   "lines": [
    ""
   ]
  }, 
  {
   "begin": "1155.480", 
   "children": [], 
   "end": "1178.880", 
   "id": "f000202", 
   "language": "pt", 
   "lines": [
    "Assim diz, e abra\u00e7ados os amigos, E tomada licen\u00e7a, enfim se parte: Passa Li\u00e3o, Castela, vendo antigos Lugares, que ganhara o p\u00e1trio Marte Navarra, com os alt\u00edssimos perigos Do Perineu, que Espanha e G\u00e1lia parte Vistas enfim de Fran\u00e7a as coisas grandes, No grande emp\u00f3rio foi parar de Frandes."
   ]
  }, 
  {
   "begin": "1178.880", 
   "children": [], 
   "end": "1178.880", 
   "id": "f000203", 
   "language": "pt", 
   "lines": [
    ""
   ]
  }, 
  {
   "begin": "1178.880", 
   "children": [], 
   "end": "1178.880", 
   "id": "f000204", 
   "language": "pt", 
   "lines": [
    ""
   ]
  }, 
  {
   "begin": "1178.880", 
   "children": [], 
   "end": "1191.600", 
   "id": "f000205", 
   "language": "pt", 
   "lines": [
    "Ali chegado, ou fosse caso ou manha, Sem passar se deteve muitos dias: Mas dos onze a ilustr\u00edssima companha Cortam do mar do Norte as ondas frias."
   ]
  }, 
  {
   "begin": "1191.600", 
   "children": [], 
   "end": "1197.600", 
   "id": "f000206", 
   "language": "pt", 
   "lines": [
    "Chegados de Inglaterra \u00e0 costa estranha, Para Londres j\u00e1 fazem todos vias."
   ]
  }, 
  {
   "begin": "1197.600", 
   "children": [], 
   "end": "1202.880", 
   "id": "f000207", 
   "language": "pt", 
   "lines": [
    "Do Duque s\u00e3o com festa agasalhados, E das damas servidos e amimados."
   ]
  }, 
  {
   "begin": "1202.880", 
   "children": [], 
   "end": "1202.880", 
   "id": "f000208", 
   "language": "pt", 
   "lines": [
    ""
   ]
  }, 
  {
   "begin": "1202.880", 
   "children": [], 
   "end": "1202.880", 
   "id": "f000209", 
   "language": "pt", 
   "lines": [
    ""
   ]
  }, 
  {
   "begin": "1202.880", 
   "children": [], 
   "end": "1225.800", 
   "id": "f000210", 
   "language": "pt", 
   "lines": [
    "Chegase o prazo e dia assinalado De entrar em campo j\u00e1 com os doze Ingleses, Que pelo Rei j\u00e1 tinham segurado: Armamse de elmos, grevas e de arneses: J\u00e1 as damas t\u00eam por si, fulgente e armado, O Mavorte feroz dos Portugueses Vestemse elas de cores e de sedas, De ouro e de j\u00f3ias mil, ricas e ledas."
   ]
  }, 
  {
   "begin": "1225.800", 
   "children": [], 
   "end": "1225.800", 
   "id": "f000211", 
   "language": "pt", 
   "lines": [
    ""
   ]
  }, 
  {
   "begin": "1225.800", 
   "children": [], 
   "end": "1225.800", 
   "id": "f000212", 
   "language": "pt", 
   "lines": [
    ""
   ]
  }, 
  {
   "begin": "1225.800", 
   "children": [], 
   "end": "1246.760", 
   "id": "f000213", 
   "language": "pt", 
   "lines": [
    "Mas aquela, a quem fora em sorte dado Magri\u00e7o, que n\u00e3o vinha, com tristeza Se veste, por n\u00e3o ter quem nomeado Seja seu cavaleiro nesta empresa Bem que os onze apregoam, que acabado Ser\u00e1 o neg\u00f3cio assim na corte Inglesa, Que as damas vencedoras se conhe\u00e7am, Posto que dois e tr\u00eas dos seus fale\u00e7am."
   ]
  }, 
  {
   "begin": "1246.760", 
   "children": [], 
   "end": "1246.760", 
   "id": "f000214", 
   "language": "pt", 
   "lines": [
    ""
   ]
  }, 
  {
   "begin": "1246.760", 
   "children": [], 
   "end": "1246.760", 
   "id": "f000215", 
   "language": "pt", 
   "lines": [
    ""
   ]
  }, 
  {
   "begin": "1246.760", 
   "children": [], 
   "end": "1258.480", 
   "id": "f000216", 
   "language": "pt", 
   "lines": [
    "J\u00e1 num sublime e p\u00fablico teatro Se assenta o Rei Ingl\u00eas com toda a corte: Estavam tr\u00eas e tr\u00eas, e quatro e quatro, Bem como a cada qual coubera em sorte."
   ]
  }, 
  {
   "begin": "1258.480", 
   "children": [], 
   "end": "1270.160", 
   "id": "f000217", 
   "language": "pt", 
   "lines": [
    "N\u00e3o s\u00e3o vistos do Sol, do Tejo ao Batro, De for\u00e7a, esfor\u00e7o e de \u00e2nimo mais forte Outros doze sair, como os Ingleses, No campo, contra os onze Portugueses."
   ]
  }, 
  {
   "begin": "1270.160", 
   "children": [], 
   "end": "1270.160", 
   "id": "f000218", 
   "language": "pt", 
   "lines": [
    ""
   ]
  }, 
  {
   "begin": "1270.160", 
   "children": [], 
   "end": "1270.160", 
   "id": "f000219", 
   "language": "pt", 
   "lines": [
    ""
   ]
  }, 
  {
   "begin": "1270.160", 
   "children": [], 
   "end": "1291.080", 
   "id": "f000220", 
   "language": "pt", 
   "lines": [
    "Mastigam os cavalos, escumando, Os \u00e1ureos freios com feroz semblante Estava o Sol nas armas rutilando Como em cristal ou r\u00edgido diamante Mas enxergase num e noutro bando Partido desigual e dissonante Dos onze contra os doze: quando a gente Come\u00e7a a alvoro\u00e7arse geralmente."
   ]
  }, 
  {
   "begin": "1291.080", 
   "children": [], 
   "end": "1291.080", 
   "id": "f000221", 
   "language": "pt", 
   "lines": [
    ""
   ]
  }, 
  {
   "begin": "1291.080", 
   "children": [], 
   "end": "1291.080", 
   "id": "f000222", 
   "language": "pt", 
   "lines": [
    ""
   ]
  }, 
  {
   "begin": "1291.080", 
   "children": [], 
   "end": "1301.120", 
   "id": "f000223", 
   "language": "pt", 
   "lines": [
    "Viram todos o rosto aonde havia A causa principal do reboli\u00e7o: Eis entra um cavaleiro, que trazia Armas, cavalo, ao b\u00e9lico servi\u00e7o."
   ]
  }, 
  {
   "begin": "1301.120", 
   "children": [], 
   "end": "1312.440", 
   "id": "f000224", 
   "language": "pt", 
   "lines": [
    "Ao Rei e \u00e0s damas fala, e logo se ia Para os onze, que este era o gr\u00e3 Magri\u00e7o Abra\u00e7a os companheiros como amigos, A quem n\u00e3o falta certo nos perigos."
   ]
  }, 
  {
   "begin": "1312.440", 
   "children": [], 
   "end": "1312.440", 
   "id": "f000225", 
   "language": "pt", 
   "lines": [
    ""
   ]
  }, 
  {
   "begin": "1312.440", 
   "children": [], 
   "end": "1312.440", 
   "id": "f000226", 
   "language": "pt", 
   "lines": [
    ""
   ]
  }, 
  {
   "begin": "1312.440", 
   "children": [], 
   "end": "1323.520", 
   "id": "f000227", 
   "language": "pt", 
   "lines": [
    "A dama, como ouviu que este era aquele Que vinha a defender seu nome e fama, Se alegra, e veste ali do animal de Hele, Que a gente bruta mais que virtude ama."
   ]
  }, 
  {
   "begin": "1323.520", 
   "children": [], 
   "end": "1335.240", 
   "id": "f000228", 
   "language": "pt", 
   "lines": [
    "J\u00e1 d\u00e3o sinal, e o som da tuba impele Os belicosos \u00e2nimos, que inflama: Picam de esporas, largam r\u00e9deas logo, Abaixam lan\u00e7as, fere a terra fogo."
   ]
  }, 
  {
   "begin": "1335.240", 
   "children": [], 
   "end": "1335.240", 
   "id": "f000229", 
   "language": "pt", 
   "lines": [
    ""
   ]
  }, 
  {
   "begin": "1335.240", 
   "children": [], 
   "end": "1335.240", 
   "id": "f000230", 
   "language": "pt", 
   "lines": [
    ""
   ]
  }, 
  {
   "begin": "1335.240", 
   "children": [], 
   "end": "1357.840", 
   "id": "f000231", 
   "language": "pt", 
   "lines": [
    "Dos cavalos o estr\u00e9pito parece Que faz que o ch\u00e3o debaixo todo treme O cora\u00e7\u00e3o no peito, que estremece De quem os olha, se alvoro\u00e7a e teme: Qual do cavalo voa, que n\u00e3o desce Qual, com o cavalo em terra dando, geme Qual vermelhas as armas faz de brancas Qual com os penachos do elmo a\u00e7outa as ancas."
   ]
  }, 
  {
   "begin": "1357.840", 
   "children": [], 
   "end": "1357.840", 
   "id": "f000232", 
   "language": "pt", 
   "lines": [
    ""
   ]
  }, 
  {
   "begin": "1357.840", 
   "children": [], 
   "end": "1357.840", 
   "id": "f000233", 
   "language": "pt", 
   "lines": [
    ""
   ]
  }, 
  {
   "begin": "1357.840", 
   "children": [], 
   "end": "1369.040", 
   "id": "f000234", 
   "language": "pt", 
   "lines": [
    "Algum dali tomou perp\u00e9tuo sono E fez da vida ao fim breve intervalo Correndo algum cavalo vai sem dono E noutra parte o dono sem cavalo."
   ]
  }, 
  {
   "begin": "1369.040", 
   "children": [], 
   "end": "1380.880", 
   "id": "f000235", 
   "language": "pt", 
   "lines": [
    "Cai a soberba Inglesa de seu trono, Que dois ou tr\u00eas j\u00e1 fora v\u00e3o do vale Os que de espada v\u00eam fazer batalha, Mais acham j\u00e1 que arn\u00eas, escudo e malha."
   ]
  }, 
  {
   "begin": "1380.880", 
   "children": [], 
   "end": "1380.880", 
   "id": "f000236", 
   "language": "pt", 
   "lines": [
    ""
   ]
  }, 
  {
   "begin": "1380.880", 
   "children": [], 
   "end": "1380.880", 
   "id": "f000237", 
   "language": "pt", 
   "lines": [
    ""
   ]
  }, 
  {
   "begin": "1380.880", 
   "children": [], 
   "end": "1392.160", 
   "id": "f000238", 
   "language": "pt", 
   "lines": [
    "Gastar palavras em contar extremos De golpes feros, cruas estocadas, \u00c9 desses gastadores, que sabemos, Maus do tempo, com f\u00e1bulas sonhadas."
   ]
  }, 
  {
   "begin": "1392.160", 
   "children": [], 
   "end": "1402.960", 
   "id": "f000239", 
   "language": "pt", 
   "lines": [
    "Basta, por fim do caso, que entendemos Que com finezas altas e afamadas, Com os nossos fica a palma da vit\u00f3ria, E as damas vencedoras, e com gl\u00f3ria."
   ]
  }, 
  {
   "begin": "1402.960", 
   "children": [], 
   "end": "1402.960", 
   "id": "f000240", 
   "language": "pt", 
   "lines": [
    ""
   ]
  }, 
  {
   "begin": "1402.960", 
   "children": [], 
   "end": "1402.960", 
   "id": "f000241", 
   "language": "pt", 
   "lines": [
    ""
   ]
  }, 
  {
   "begin": "1402.960", 
   "children": [], 
   "end": "1424.520", 
   "id": "f000242", 
   "language": "pt", 
   "lines": [
    "Recolhe o Duque os doze vencedores Nos seus pa\u00e7os, com festas e alegria Cozinheiros ocupa e ca\u00e7adores Das damas a formosa companhia, Que querem dar aos seus libertadores Banquetes mil cada hora e cada dia, Enquanto se det\u00eam em Inglaterra, At\u00e9 tornar \u00e0 doce e cara terra."
   ]
  }, 
  {
   "begin": "1424.520", 
   "children": [], 
   "end": "1424.520", 
   "id": "f000243", 
   "language": "pt", 
   "lines": [
    ""
   ]
  }, 
  {
   "begin": "1424.520", 
   "children": [], 
   "end": "1424.520", 
   "id": "f000244", 
   "language": "pt", 
   "lines": [
    ""
   ]
  }, 
  {
   "begin": "1424.520", 
   "children": [], 
   "end": "1446.160", 
   "id": "f000245", 
   "language": "pt", 
   "lines": [
    "Mas dizem que, contudo, o gr\u00e3 Magri\u00e7o, Desejoso de ver as coisas grandes, L\u00e1 se deixou ficar, onde um servi\u00e7o Not\u00e1vel \u00e0 condessa fez de Frandes E como quem n\u00e3o era j\u00e1 novi\u00e7o Em todo trance, onde tu, Marte, mandes, Um Franc\u00eas mata em campo, que o destino L\u00e1 teve de Torcato e de Corvino."
   ]
  }, 
  {
   "begin": "1446.160", 
   "children": [], 
   "end": "1446.160", 
   "id": "f000246", 
   "language": "pt", 
   "lines": [
    ""
   ]
  }, 
  {
   "begin": "1446.160", 
   "children": [], 
   "end": "1446.160", 
   "id": "f000247", 
   "language": "pt", 
   "lines": [
    ""
   ]
  }, 
  {
   "begin": "1446.160", 
   "children": [], 
   "end": "1457.280", 
   "id": "f000248", 
   "language": "pt", 
   "lines": [
    "Outro tamb\u00e9m dos doze em Alemanha Se lan\u00e7a, e teve um fero desafio Com um Germano enganoso, que com manha N\u00e3o devida o quis p\u00f4r no extremo fio."
   ]
  }, 
  {
   "begin": "1457.280", 
   "children": [], 
   "end": "1468.000", 
   "id": "f000249", 
   "language": "pt", 
   "lines": [
    "Contando assim Veloso, j\u00e1 a companha Lhe pede que n\u00e3o f a\u00e7a tal desvio Do caso de Magri\u00e7o, e vencimento, Nem deixe o de Alemanha em esquecimento."
   ]
  }, 
  {
   "begin": "1468.000", 
   "children": [], 
   "end": "1468.000", 
   "id": "f000250", 
   "language": "pt", 
   "lines": [
    ""
   ]
  }, 
  {
   "begin": "1468.000", 
   "children": [], 
   "end": "1468.000", 
   "id": "f000251", 
   "language": "pt", 
   "lines": [
    ""
   ]
  }, 
  {
   "begin": "1468.000", 
   "children": [], 
   "end": "1490.080", 
   "id": "f000252", 
   "language": "pt", 
   "lines": [
    "Mas, neste passo, assim prontos estando Eis o mestre, que olhando os ares anda, O apito toca acordam despertando Os marinheiros duma e doutra banda E porque o vento vinha refrescando, Os traquetes das g\u00e1veas tomar manda: Alerta, disse, estai, que o vento cresce Daquela nuvem negra que aparece."
   ]
  }, 
  {
   "begin": "1490.080", 
   "children": [], 
   "end": "1490.080", 
   "id": "f000253", 
   "language": "pt", 
   "lines": [
    ""
   ]
  }, 
  {
   "begin": "1490.080", 
   "children": [], 
   "end": "1490.080", 
   "id": "f000254", 
   "language": "pt", 
   "lines": [
    ""
   ]
  }, 
  {
   "begin": "1490.080", 
   "children": [], 
   "end": "1502.080", 
   "id": "f000255", 
   "language": "pt", 
   "lines": [
    "N\u00e3o eram os traquetes bem tomados, Quando d\u00e1 a grande e s\u00fabita procela: Amaina, disse o mestre a grandes brados, Amaina, disse, amaina a grande vela!"
   ]
  }, 
  {
   "begin": "1502.080", 
   "children": [], 
   "end": "1512.120", 
   "id": "f000256", 
   "language": "pt", 
   "lines": [
    "N\u00e3o esperam os ventos indinados Que amainassem mas juntos dando nela, Em peda\u00e7os a fazem, com um ru\u00eddo Que o mundo pareceu ser destru\u00eddo."
   ]
  }, 
  {
   "begin": "1512.120", 
   "children": [], 
   "end": "1512.120", 
   "id": "f000257", 
   "language": "pt", 
   "lines": [
    ""
   ]
  }, 
  {
   "begin": "1512.120", 
   "children": [], 
   "end": "1512.120", 
   "id": "f000258", 
   "language": "pt", 
   "lines": [
    ""
   ]
  }, 
  {
   "begin": "1512.120", 
   "children": [], 
   "end": "1528.640", 
   "id": "f000259", 
   "language": "pt", 
   "lines": [
    "O c\u00e9u fere com gritos nisto a gente, Com s\u00fabito temor e desacordo, Que, no romper da vela, a nau pendente Toma gr\u00e3 suma d\u00e1gua pelo bordo: Alija, disse o mestre rijamente, Alija tudo ao mar n\u00e3o falte acordo."
   ]
  }, 
  {
   "begin": "1528.640", 
   "children": [], 
   "end": "1533.400", 
   "id": "f000260", 
   "language": "pt", 
   "lines": [
    "V\u00e3o outros dar \u00e0 bomba, n\u00e3o cessando A bomba, que nos imos alagando!"
   ]
  }, 
  {
   "begin": "1533.400", 
   "children": [], 
   "end": "1533.400", 
   "id": "f000261", 
   "language": "pt", 
   "lines": [
    ""
   ]
  }, 
  {
   "begin": "1533.400", 
   "children": [], 
   "end": "1533.400", 
   "id": "f000262", 
   "language": "pt", 
   "lines": [
    ""
   ]
  }, 
  {
   "begin": "1533.400", 
   "children": [], 
   "end": "1543.840", 
   "id": "f000263", 
   "language": "pt", 
   "lines": [
    "Correm logo os soldados animosos A dar \u00e0 bomba e, tanto que chegaram, Os balan\u00e7os que os mares temerosos Deram \u00e0 nau, num bordo os derribaram."
   ]
  }, 
  {
   "begin": "1543.840", 
   "children": [], 
   "end": "1554.720", 
   "id": "f000264", 
   "language": "pt", 
   "lines": [
    "Tr\u00eas marinheiros, duros e for\u00e7osos, A menear o leme n\u00e3o bastaram Talhas lhe punham duma e doutra parte, Sem aproveitar dos homens for\u00e7a e arte."
   ]
  }, 
  {
   "begin": "1554.720", 
   "children": [], 
   "end": "1554.720", 
   "id": "f000265", 
   "language": "pt", 
   "lines": [
    ""
   ]
  }, 
  {
   "begin": "1554.720", 
   "children": [], 
   "end": "1554.720", 
   "id": "f000266", 
   "language": "pt", 
   "lines": [
    ""
   ]
  }, 
  {
   "begin": "1554.720", 
   "children": [], 
   "end": "1564.520", 
   "id": "f000267", 
   "language": "pt", 
   "lines": [
    "Os ventos eram tais, que n\u00e3o puderam Mostrar mais for\u00e7a do \u00edmpeto cruel, Se para derribar ent\u00e3o vieram A fort\u00edssima torre de Babel."
   ]
  }, 
  {
   "begin": "1564.520", 
   "children": [], 
   "end": "1574.720", 
   "id": "f000268", 
   "language": "pt", 
   "lines": [
    "Nos alt\u00edssimos mares, que cresceram, A pequena grandura dum batel Mostra a possante nau, que move espanto, Vendo que se sust\u00e9m nas ondas tanto."
   ]
  }, 
  {
   "begin": "1574.720", 
   "children": [], 
   "end": "1574.720", 
   "id": "f000269", 
   "language": "pt", 
   "lines": [
    ""
   ]
  }, 
  {
   "begin": "1574.720", 
   "children": [], 
   "end": "1574.720", 
   "id": "f000270", 
   "language": "pt", 
   "lines": [
    ""
   ]
  }, 
  {
   "begin": "1574.720", 
   "children": [], 
   "end": "1580.680", 
   "id": "f000271", 
   "language": "pt", 
   "lines": [
    "A nau grande, em que vai Paulo da Gama, Quebrado leva o masto pelo meio."
   ]
  }, 
  {
   "begin": "1580.680", 
   "children": [], 
   "end": "1585.360", 
   "id": "f000272", 
   "language": "pt", 
   "lines": [
    "Quase toda alagada: a gente chama Aquele que a salvar o mundo veio."
   ]
  }, 
  {
   "begin": "1585.360", 
   "children": [], 
   "end": "1596.000", 
   "id": "f000273", 
   "language": "pt", 
   "lines": [
    "N\u00e3o menos gritos v\u00e3os ao ar derrama Toda a nau de Coelho, com receio, Conquanto teve o mestre tanto tento, Que primeiro amainou, que desse o vento."
   ]
  }, 
  {
   "begin": "1596.000", 
   "children": [], 
   "end": "1596.000", 
   "id": "f000274", 
   "language": "pt", 
   "lines": [
    ""
   ]
  }, 
  {
   "begin": "1596.000", 
   "children": [], 
   "end": "1596.000", 
   "id": "f000275", 
   "language": "pt", 
   "lines": [
    ""
   ]
  }, 
  {
   "begin": "1596.000", 
   "children": [], 
   "end": "1605.880", 
   "id": "f000276", 
   "language": "pt", 
   "lines": [
    "Agora sobre as nuvens os subiam As ondas de Netuno furibundo Agora a ver parece que desciam As \u00edntimas entranhas do Profundo."
   ]
  }, 
  {
   "begin": "1605.880", 
   "children": [], 
   "end": "1616.280", 
   "id": "f000277", 
   "language": "pt", 
   "lines": [
    "Noto, Austro, B\u00f3reas, Aquilo queriam Arruinar a m\u00e1quina do mundo: A noite negra e feia se alumia Com os raios, em que o P\u00f3lo todo ardia."
   ]
  }, 
  {
   "begin": "1616.280", 
   "children": [], 
   "end": "1616.280", 
   "id": "f000278", 
   "language": "pt", 
   "lines": [
    ""
   ]
  }, 
  {
   "begin": "1616.280", 
   "children": [], 
   "end": "1616.280", 
   "id": "f000279", 
   "language": "pt", 
   "lines": [
    ""
   ]
  }, 
  {
   "begin": "1616.280", 
   "children": [], 
   "end": "1627.320", 
   "id": "f000280", 
   "language": "pt", 
   "lines": [
    "As Alci\u00f3neas aves triste canto Junto da costa brava levantaram, Lembrandose do seu passado pranto, Que as furiosas \u00e1guas lhe causaram."
   ]
  }, 
  {
   "begin": "1627.320", 
   "children": [], 
   "end": "1638.000", 
   "id": "f000281", 
   "language": "pt", 
   "lines": [
    "Os delfins namorados entretanto L\u00e1 nas covas mar\u00edtimas entraram, Fugindo \u00e0 tempestade e ventos duros, Que nem no fundo os deixa estar seguios."
   ]
  }, 
  {
   "begin": "1638.000", 
   "children": [], 
   "end": "1638.000", 
   "id": "f000282", 
   "language": "pt", 
   "lines": [
    ""
   ]
  }, 
  {
   "begin": "1638.000", 
   "children": [], 
   "end": "1638.000", 
   "id": "f000283", 
   "language": "pt", 
   "lines": [
    ""
   ]
  }, 
  {
   "begin": "1638.000", 
   "children": [], 
   "end": "1658.200", 
   "id": "f000284", 
   "language": "pt", 
   "lines": [
    "Nunca t\u00e3o vivos raios fabricou Contra a fera soberba dos Gigantes O gr\u00e3 ferreiro s\u00f3rdido, que obrou Do enteado as armas radiantes Nem tanto o gr\u00e3 Tonante arremessou Rel\u00e2mpagos ao mundo fulminantes, No gr\u00e3 dil\u00favio, donde s\u00f3s viveram Os dois que em gente as pedras converteram."
   ]
  }, 
  {
   "begin": "1658.200", 
   "children": [], 
   "end": "1658.200", 
   "id": "f000285", 
   "language": "pt", 
   "lines": [
    ""
   ]
  }, 
  {
   "begin": "1658.200", 
   "children": [], 
   "end": "1658.200", 
   "id": "f000286", 
   "language": "pt", 
   "lines": [
    ""
   ]
  }, 
  {
   "begin": "1658.200", 
   "children": [], 
   "end": "1663.360", 
   "id": "f000287", 
   "language": "pt", 
   "lines": [
    "Quantos montes, ent\u00e3o, que derribaram As ondas que batiam denodadas!"
   ]
  }, 
  {
   "begin": "1663.360", 
   "children": [], 
   "end": "1668.640", 
   "id": "f000288", 
   "language": "pt", 
   "lines": [
    "Quantas \u00e1rvores velhas arrancaram Do vento bravo as f\u00farias indinadas!"
   ]
  }, 
  {
   "begin": "1668.640", 
   "children": [], 
   "end": "1678.240", 
   "id": "f000289", 
   "language": "pt", 
   "lines": [
    "As for\u00e7osas ra\u00edzes n\u00e3o cuidaram Que nunca para o c\u00e9u fossem viradas, Nem as fundas areias que pudessem Tanto os mares que em cima as revolvessem."
   ]
  }, 
  {
   "begin": "1678.240", 
   "children": [], 
   "end": "1678.240", 
   "id": "f000290", 
   "language": "pt", 
   "lines": [
    ""
   ]
  }, 
  {
   "begin": "1678.240", 
   "children": [], 
   "end": "1678.240", 
   "id": "f000291", 
   "language": "pt", 
   "lines": [
    ""
   ]
  }, 
  {
   "begin": "1678.240", 
   "children": [], 
   "end": "1699.360", 
   "id": "f000292", 
   "language": "pt", 
   "lines": [
    "Vendo Vasco da Gama que t\u00e3o perto Do fim de seu desejo se perdia Vendo ora o mar at\u00e9 o inferno aberto, Ora com nova f\u00faria ao c\u00e9u subia, Confuso de temor, da vida incerto, Onde nenhum rem\u00e9dio lhe valia, Chama aquele rem\u00e9dio santo \u00e9 forte, Que o imposs\u00edvel pode, desta sorte:"
   ]
  }, 
  {
   "begin": "1699.360", 
   "children": [], 
   "end": "1699.360", 
   "id": "f000293", 
   "language": "pt", 
   "lines": [
    ""
   ]
  }, 
  {
   "begin": "1699.360", 
   "children": [], 
   "end": "1699.360", 
   "id": "f000294", 
   "language": "pt", 
   "lines": [
    ""
   ]
  }, 
  {
   "begin": "1699.360", 
   "children": [], 
   "end": "1721.360", 
   "id": "f000295", 
   "language": "pt", 
   "lines": [
    "Divina Guarda, ang\u00e9lica, celeste, Que os c\u00e9us, o mar e terra senhoreias Tu, que a todo Israel ref\u00fagio deste Por metade das \u00e1guas Eritreias Tu, que livraste Paulo e o defendeste Das Sirtes arenosas e ondas feias, E guardaste com os filhos o segundo Povoador do alagado e v\u00e1cuo mundo"
   ]
  }, 
  {
   "begin": "1721.360", 
   "children": [], 
   "end": "1721.360", 
   "id": "f000296", 
   "language": "pt", 
   "lines": [
    ""
   ]
  }, 
  {
   "begin": "1721.360", 
   "children": [], 
   "end": "1721.360", 
   "id": "f000297", 
   "language": "pt", 
   "lines": [
    ""
   ]
  }, 
  {
   "begin": "1721.360", 
   "children": [], 
   "end": "1742.320", 
   "id": "f000298", 
   "language": "pt", 
   "lines": [
    "Se tenho novos modos perigosos Doutra Cila e Car\u00edbdis j\u00e1 passados, Outras Sirtes e baixos arenosos, Outros Acrocer\u00e1unios infamados, No fim de tantos casos trabalhosos, Por que somos de ti desamparados, Se este nosso trabalho n\u00e3o te ofende, Mas antes teu servi\u00e7o s\u00f3 pretende?"
   ]
  }, 
  {
   "begin": "1742.320", 
   "children": [], 
   "end": "1742.320", 
   "id": "f000299", 
   "language": "pt", 
   "lines": [
    ""
   ]
  }, 
  {
   "begin": "1742.320", 
   "children": [], 
   "end": "1742.320", 
   "id": "f000300", 
   "language": "pt", 
   "lines": [
    ""
   ]
  }, 
  {
   "begin": "1742.320", 
   "children": [], 
   "end": "1752.920", 
   "id": "f000301", 
   "language": "pt", 
   "lines": [
    "\u00d3 ditosos aqueles que puderam Entre as agudas lan\u00e7as Africanas Morrer, enquanto fortes sostiveram A santa F\u00e9 nas terras Mauritanas!"
   ]
  }, 
  {
   "begin": "1752.920", 
   "children": [], 
   "end": "1763.960", 
   "id": "f000302", 
   "language": "pt", 
   "lines": [
    "De quem feitos ilustres se souberam, De quem ficam mem\u00f3rias soberanas, De quem se ganha a vida com perd\u00eala, Doce fazendo a morte as honras dela!"
   ]
  }, 
  {
   "begin": "1763.960", 
   "children": [], 
   "end": "1763.960", 
   "id": "f000303", 
   "language": "pt", 
   "lines": [
    ""
   ]
  }, 
  {
   "begin": "1763.960", 
   "children": [], 
   "end": "1763.960", 
   "id": "f000304", 
   "language": "pt", 
   "lines": [
    ""
   ]
  }, 
  {
   "begin": "1763.960", 
   "children": [], 
   "end": "1775.880", 
   "id": "f000305", 
   "language": "pt", 
   "lines": [
    "Assim dizendo, os ventos que lutavam Como touros ind\u00f3mitos bramando, Mais e mais a tormenta acrescentavam Pela mi\u00fada enx\u00e1rcia assoviando."
   ]
  }, 
  {
   "begin": "1775.880", 
   "children": [], 
   "end": "1786.560", 
   "id": "f000306", 
   "language": "pt", 
   "lines": [
    "Rel\u00e2mpados medonhos n\u00e3o cessavam, Feros trov\u00f5es, que v\u00eam representando Cair o c\u00e9u dos eixos sobre a terra, Consigo os elementos terem guerra."
   ]
  }, 
  {
   "begin": "1786.560", 
   "children": [], 
   "end": "1786.560", 
   "id": "f000307", 
   "language": "pt", 
   "lines": [
    ""
   ]
  }, 
  {
   "begin": "1786.560", 
   "children": [], 
   "end": "1786.560", 
   "id": "f000308", 
   "language": "pt", 
   "lines": [
    ""
   ]
  }, 
  {
   "begin": "1786.560", 
   "children": [], 
   "end": "1797.640", 
   "id": "f000309", 
   "language": "pt", 
   "lines": [
    "Mas j\u00e1 a amorosa estrela cintilava Diante do Sol claro, no Horizonte, Mensageira do dia, e visitava A terra e o largo mar, com leda fronte."
   ]
  }, 
  {
   "begin": "1797.640", 
   "children": [], 
   "end": "1808.840", 
   "id": "f000310", 
   "language": "pt", 
   "lines": [
    "A densa que nos c\u00e9us a governava, De quem foge o ens\u00edfero Orionte, Tanto que o mar e a cara armada vira, Tocada junto foi de medo e de ira."
   ]
  }, 
  {
   "begin": "1808.840", 
   "children": [], 
   "end": "1808.840", 
   "id": "f000311", 
   "language": "pt", 
   "lines": [
    ""
   ]
  }, 
  {
   "begin": "1808.840", 
   "children": [], 
   "end": "1808.840", 
   "id": "f000312", 
   "language": "pt", 
   "lines": [
    ""
   ]
  }, 
  {
   "begin": "1808.840", 
   "children": [], 
   "end": "1819.080", 
   "id": "f000313", 
   "language": "pt", 
   "lines": [
    "Estas obras de Baco s\u00e3o, por certo, Disse mas n\u00e3o ser\u00e1 que avante leve T\u00e3o danada ten\u00e7\u00e3o, que descoberto Me ser\u00e1 sempre o mil a que se atreve."
   ]
  }, 
  {
   "begin": "1819.080", 
   "children": [], 
   "end": "1830.320", 
   "id": "f000314", 
   "language": "pt", 
   "lines": [
    "Isto dizendo, desce ao mar aberto, No caminho gastando espa\u00e7o breve, Enquanto manda as Ninfas amorosas Grinaldas nas cabe\u00e7as p\u00f4r de rosas."
   ]
  }, 
  {
   "begin": "1830.320", 
   "children": [], 
   "end": "1830.320", 
   "id": "f000315", 
   "language": "pt", 
   "lines": [
    ""
   ]
  }, 
  {
   "begin": "1830.320", 
   "children": [], 
   "end": "1830.320", 
   "id": "f000316", 
   "language": "pt", 
   "lines": [
    ""
   ]
  }, 
  {
   "begin": "1830.320", 
   "children": [], 
   "end": "1835.880", 
   "id": "f000317", 
   "language": "pt", 
   "lines": [
    "Grinaldas manda p\u00f4r de v\u00e1rias cores Sobre cabelo louros \u00e0 porfia."
   ]
  }, 
  {
   "begin": "1835.880", 
   "children": [], 
   "end": "1841.200", 
   "id": "f000318", 
   "language": "pt", 
   "lines": [
    "Quem n\u00e3o dir\u00e1 que nascem roxas flores Sobre ouro natural, que Amor enfia?"
   ]
  }, 
  {
   "begin": "1841.200", 
   "children": [], 
   "end": "1852.280", 
   "id": "f000319", 
   "language": "pt", 
   "lines": [
    "Abrandar determina, por amores, Dos ventos a nojosa companhia, Mostrandolhe as amadas Ninfas belas, Que mais formosas vinham que as estrelas."
   ]
  }, 
  {
   "begin": "1852.280", 
   "children": [], 
   "end": "1852.280", 
   "id": "f000320", 
   "language": "pt", 
   "lines": [
    ""
   ]
  }, 
  {
   "begin": "1852.280", 
   "children": [], 
   "end": "1852.280", 
   "id": "f000321", 
   "language": "pt", 
   "lines": [
    ""
   ]
  }, 
  {
   "begin": "1852.280", 
   "children": [], 
   "end": "1862.000", 
   "id": "f000322", 
   "language": "pt", 
   "lines": [
    "Assim foi porque, tanto que chegaram A vista delas, logo lhe falecem As for\u00e7as com que dantes pelejaram, E j\u00e1 como rendidos lhe obedecem."
   ]
  }, 
  {
   "begin": "1862.000", 
   "children": [], 
   "end": "1867.120", 
   "id": "f000323", 
   "language": "pt", 
   "lines": [
    "Os p\u00e9s e m\u00e3os parece que lhe ataram Os cabelos que os raios escurecem."
   ]
  }, 
  {
   "begin": "1867.120", 
   "children": [], 
   "end": "1872.280", 
   "id": "f000324", 
   "language": "pt", 
   "lines": [
    "A B\u00f3reas, que do peito mais queria, Assim disse a bel\u00edssima Oritia:"
   ]
  }, 
  {
   "begin": "1872.280", 
   "children": [], 
   "end": "1872.280", 
   "id": "f000325", 
   "language": "pt", 
   "lines": [
    ""
   ]
  }, 
  {
   "begin": "1872.280", 
   "children": [], 
   "end": "1872.320", 
   "id": "f000326", 
   "language": "pt", 
   "lines": [
    ""
   ]
  }, 
  {
   "begin": "1872.320", 
   "children": [], 
   "end": "1883.360", 
   "id": "f000327", 
   "language": "pt", 
   "lines": [
    "N\u00e3o creias, fero B\u00f3reas, que te creio Que me tiveste nunca amor constante, Que brandura \u00e9 de amor mais certo arreio, E n\u00e3o conv\u00e9m furor a firme amante."
   ]
  }, 
  {
   "begin": "1883.360", 
   "children": [], 
   "end": "1894.000", 
   "id": "f000328", 
   "language": "pt", 
   "lines": [
    "Se j\u00e1 n\u00e3o p\u00f5es a tanta ins\u00e2nia freio, N\u00e3o esperes de mi, daqui em diante, Que possa mais amarte, mas temerte Que amor contigo em medo se converte."
   ]
  }, 
  {
   "begin": "1894.000", 
   "children": [], 
   "end": "1894.000", 
   "id": "f000329", 
   "language": "pt", 
   "lines": [
    ""
   ]
  }, 
  {
   "begin": "1894.000", 
   "children": [], 
   "end": "1894.000", 
   "id": "f000330", 
   "language": "pt", 
   "lines": [
    ""
   ]
  }, 
  {
   "begin": "1894.000", 
   "children": [], 
   "end": "1904.000", 
   "id": "f000331", 
   "language": "pt", 
   "lines": [
    "Assim mesmo a formosa Galateia Dizia ao fero Noto, que bem sabe Que dias h\u00e1 que em v\u00eala se recreia, E bem cr\u00ea que com ele tudo acabe."
   ]
  }, 
  {
   "begin": "1904.000", 
   "children": [], 
   "end": "1914.480", 
   "id": "f000332", 
   "language": "pt", 
   "lines": [
    "N\u00e3o sabe o bravo tanto bem se o creia, Que o cora\u00e7\u00e3o no peito lhe n\u00e3o cabe, De contente de ver que a dama o manda, Pouco cuida que faz, se logo abranda."
   ]
  }, 
  {
   "begin": "1914.480", 
   "children": [], 
   "end": "1914.480", 
   "id": "f000333", 
   "language": "pt", 
   "lines": [
    ""
   ]
  }, 
  {
   "begin": "1914.480", 
   "children": [], 
   "end": "1914.480", 
   "id": "f000334", 
   "language": "pt", 
   "lines": [
    ""
   ]
  }, 
  {
   "begin": "1914.480", 
   "children": [], 
   "end": "1925.120", 
   "id": "f000335", 
   "language": "pt", 
   "lines": [
    "Desta maneira as outras amansavam Subitamente os outros amadores E logo \u00e0 linda V\u00e9nus se entregavam, Amansadas as iras e os furores."
   ]
  }, 
  {
   "begin": "1925.120", 
   "children": [], 
   "end": "1934.840", 
   "id": "f000336", 
   "language": "pt", 
   "lines": [
    "Ela lhe prometeu, vendo que amavam, Sempiterno favor em seus amores, Nas belas m\u00e3os tomandolhe homenagem De lhe serem leais esta viagem."
   ]
  }, 
  {
   "begin": "1934.840", 
   "children": [], 
   "end": "1934.840", 
   "id": "f000337", 
   "language": "pt", 
   "lines": [
    ""
   ]
  }, 
  {
   "begin": "1934.840", 
   "children": [], 
   "end": "1934.840", 
   "id": "f000338", 
   "language": "pt", 
   "lines": [
    ""
   ]
  }, 
  {
   "begin": "1934.840", 
   "children": [], 
   "end": "1945.960", 
   "id": "f000339", 
   "language": "pt", 
   "lines": [
    "J\u00e1 a manh\u00e3 clara dava nos outeiros Por onde o Ganges murmurando soa, Quando da celsa g\u00e1vea os marinheiros Enxergaram terra alta pela proa."
   ]
  }, 
  {
   "begin": "1945.960", 
   "children": [], 
   "end": "1951.280", 
   "id": "f000340", 
   "language": "pt", 
   "lines": [
    "J\u00e1 fora de tormenta, e dos primeiros Mares, o temor v\u00e3o do peito voa."
   ]
  }, 
  {
   "begin": "1951.280", 
   "children": [], 
   "end": "1956.360", 
   "id": "f000341", 
   "language": "pt", 
   "lines": [
    "Disse alegre o piloto Melindano: Terra \u00e9 de Calecu, se n\u00e3o me engano."
   ]
  }, 
  {
   "begin": "1956.360", 
   "children": [], 
   "end": "1956.360", 
   "id": "f000342", 
   "language": "pt", 
   "lines": [
    ""
   ]
  }, 
  {
   "begin": "1956.360", 
   "children": [], 
   "end": "1956.360", 
   "id": "f000343", 
   "language": "pt", 
   "lines": [
    ""
   ]
  }, 
  {
   "begin": "1956.360", 
   "children": [], 
   "end": "1966.000", 
   "id": "f000344", 
   "language": "pt", 
   "lines": [
    "Esta \u00e9 por certo a terra que buscais Da verdadeira \u00cdndia, que aparece E se do mundo mais n\u00e3o desejais, Vosso trabalho longo aqui fenece."
   ]
  }, 
  {
   "begin": "1966.000", 
   "children": [], 
   "end": "1976.680", 
   "id": "f000345", 
   "language": "pt", 
   "lines": [
    "Sofrer aqui n\u00e3o pode o Gama mais, De ledo em ver que a terra se conhece: Os geolhos no ch\u00e3o, as m\u00e3os ao c\u00e9u, A merc\u00ea grande a Deus agradeceu."
   ]
  }, 
  {
   "begin": "1976.680", 
   "children": [], 
   "end": "1976.680", 
   "id": "f000346", 
   "language": "pt", 
   "lines": [
    ""
   ]
  }, 
  {
   "begin": "1976.680", 
   "children": [], 
   "end": "1976.680", 
   "id": "f000347", 
   "language": "pt", 
   "lines": [
    ""
   ]
  }, 
  {
   "begin": "1976.680", 
   "children": [], 
   "end": "1996.880", 
   "id": "f000348", 
   "language": "pt", 
   "lines": [
    "As gra\u00e7as a Deus dava, e raz\u00e3o tinha, Que n\u00e3o somente a terra lhe mostrava, Que com tanto temor buscando vinha, Por quem tanto trabalho experimentava Mas viase livrado t\u00e3o asinha Da morte, que no mar lhe aparelhava O vento duro, fervido e medonho, Como quem despertou de horrendo sonho."
   ]
  }, 
  {
   "begin": "1996.880", 
   "children": [], 
   "end": "1996.880", 
   "id": "f000349", 
   "language": "pt", 
   "lines": [
    ""
   ]
  }, 
  {
   "begin": "1996.880", 
   "children": [], 
   "end": "1996.880", 
   "id": "f000350", 
   "language": "pt", 
   "lines": [
    ""
   ]
  }, 
  {
   "begin": "1996.880", 
   "children": [], 
   "end": "2019.760", 
   "id": "f000351", 
   "language": "pt", 
   "lines": [
    "Por meio destes h\u00f3rridos perigos, Destes trabalhos graves e temores, Alcan\u00e7am os que s\u00e3o de fama amigos As honras imortais e graus maiores: N\u00e3o encostados sempre nos antigos Troncos nobres de seus antecessores N\u00e3o nos leitos dourados, entre os finos Animais de Mosc\u00f3via zebelinos"
   ]
  }, 
  {
   "begin": "2019.760", 
   "children": [], 
   "end": "2019.760", 
   "id": "f000352", 
   "language": "pt", 
   "lines": [
    ""
   ]
  }, 
  {
   "begin": "2019.760", 
   "children": [], 
   "end": "2019.760", 
   "id": "f000353", 
   "language": "pt", 
   "lines": [
    ""
   ]
  }, 
  {
   "begin": "2019.760", 
   "children": [], 
   "end": "2040.760", 
   "id": "f000354", 
   "language": "pt", 
   "lines": [
    "N\u00e3o com os manjares novos e esquisitos, N\u00e3o com os passeios moles e ociosos, N\u00e3o com os v\u00e1rios deleites e infinitos, Que afeminam os peitos generosos, N\u00e3o com os nunca vencidos apetitos Que a Fortuna tem sempre t\u00e3o mimosos, Que n\u00e3o sofre a nenhum que o passo mude Para alguma obra her\u00f3ica de virtude"
   ]
  }, 
  {
   "begin": "2040.760", 
   "children": [], 
   "end": "2040.800", 
   "id": "f000355", 
   "language": "pt", 
   "lines": [
    ""
   ]
  }, 
  {
   "begin": "2040.800", 
   "children": [], 
   "end": "2040.840", 
   "id": "f000356", 
   "language": "pt", 
   "lines": [
    ""
   ]
  }, 
  {
   "begin": "2040.840", 
   "children": [], 
   "end": "2061.840", 
   "id": "f000357", 
   "language": "pt", 
   "lines": [
    "Mas com buscar com o seu for\u00e7oso bra\u00e7o As honras, que ele chame pr\u00f3prias suas Vigiando, e vestindo o forjado a\u00e7o, Sofrendo tempestades e ondas cruas Vencendo os torpes frios no rega\u00e7o Do Sul e regi\u00f5es de abrigo nuas Engolindo o corrupto mantimento, Temperado com um \u00e1rduo sofrimento"
   ]
  }, 
  {
   "begin": "2061.840", 
   "children": [], 
   "end": "2061.840", 
   "id": "f000358", 
   "language": "pt", 
   "lines": [
    ""
   ]
  }, 
  {
   "begin": "2061.840", 
   "children": [], 
   "end": "2061.840", 
   "id": "f000359", 
   "language": "pt", 
   "lines": [
    ""
   ]
  }, 
  {
   "begin": "2061.840", 
   "children": [], 
   "end": "2072.240", 
   "id": "f000360", 
   "language": "pt", 
   "lines": [
    "E com for\u00e7ar o rosto, que se enfia, A parecer seguro, ledo, inteiro, Para o pelouro ardente, que assovia E leva a perna ou bra\u00e7o ao companheiro."
   ]
  }, 
  {
   "begin": "2072.240", 
   "children": [], 
   "end": "2082.800", 
   "id": "f000361", 
   "language": "pt", 
   "lines": [
    "Destarte, o peito um calo honroso cria, Desprezador das honras e dinheiro, Das honras e dinheiro, que a ventura Forjou, e n\u00e3o virtude justa e dura."
   ]
  }, 
  {
   "begin": "2082.800", 
   "children": [], 
   "end": "2082.800", 
   "id": "f000362", 
   "language": "pt", 
   "lines": [
    ""
   ]
  }, 
  {
   "begin": "2082.800", 
   "children": [], 
   "end": "2082.800", 
   "id": "f000363", 
   "language": "pt", 
   "lines": [
    ""
   ]
  }, 
  {
   "begin": "2082.800", 
   "children": [], 
   "end": "2093.560", 
   "id": "f000364", 
   "language": "pt", 
   "lines": [
    "Destarte se esclarece o entendimento, Que experi\u00eancias fazem repousado, E fica vendo, corno de alto assento, O baixo trato humano embara\u00e7ado."
   ]
  }, 
  {
   "begin": "2093.560", 
   "children": [], 
   "end": "2111.080", 
   "id": "f000365", 
   "language": "pt", 
   "lines": [
    "Este, onde tiver for\u00e7a o regimento Direito, e n\u00e3o de afeitos ocupado, Subir\u00e1 (como deve) a ilustre mando, Contra vontade sua, e n\u00e3o rogando."
   ]
  }, 
  {
   "begin": "2111.080", 
   "children": [], 
   "end": "2111.080", 
   "id": "f000366", 
   "language": "pt", 
   "lines": [
    ""
   ]
  }, 
  {
   "begin": "2111.080", 
   "children": [], 
   "end": "2121.440", 
   "id": "f000367", 
   "language": "pt", 
   "lines": [
    ""
   ]
  }
 ]
}